src/main_tb.vcd
$date
	Sat Nov 20 02:56:08 2021
$end
$version
	Icarus Verilog
$end
$timescale
	1ps
$end
$scope module template_tb $end
$var reg 1 ! clk_i $end
$var reg 1 " px_clk $end
$var reg 1 # reset_ni $end
$scope module dut $end
$var wire 4 $ blue_o [3:0] $end
$var wire 1 ! clk_i $end
$var wire 4 % green_o [3:0] $end
$var wire 1 & pll_lock $end
$var wire 1 ' px_clk $end
$var wire 4 ( red_o [3:0] $end
$var wire 1 # reset_ni $end
$var wire 1 ) vsync_o $end
$var wire 1 * hsync_o $end
$var reg 4 + blue_d [3:0] $end
$var reg 4 , blue_q [3:0] $end
$var reg 4 - green_d [3:0] $end
$var reg 4 . green_q [3:0] $end
$var reg 10 / horizontal_counter_d [9:0] $end
$var reg 10 0 horizontal_counter_q [9:0] $end
$var reg 4 1 hsync_d [3:0] $end
$var reg 4 2 hsync_q [3:0] $end
$var reg 1 3 pll_lock_r $end
$var reg 1 4 px_clk_r $end
$var reg 4 5 red_d [3:0] $end
$var reg 4 6 red_q [3:0] $end
$var reg 10 7 vertical_counter_d [9:0] $end
$var reg 10 8 vertical_counter_q [9:0] $end
$var reg 4 9 vsync_d [3:0] $end
$var reg 4 : vsync_q [3:0] $end
$scope module u_pll $end
$var wire 1 ! clock_in $end
$var wire 1 ' clock_out $end
$var wire 1 & locked $end
$scope module uut $end
$var wire 1 ; BYPASS $end
$var wire 8 < DYNAMICDELAY [7:0] $end
$var wire 1 = EXTFEEDBACK $end
$var wire 1 > LATCHINPUTVALUE $end
$var wire 1 & LOCK $end
$var wire 1 ! PACKAGEPIN $end
$var wire 1 ' PLLOUTCORE $end
$var wire 1 ? PLLOUTGLOBAL $end
$var wire 1 @ RESETB $end
$var wire 1 A SCLK $end
$var wire 1 B SDI $end
$var wire 1 C SDO $end
$upscope $end
$upscope $end
$scope module u_vga $end
$var wire 4 D blue_o [3:0] $end
$var wire 1 ' clk_i $end
$var wire 4 E green_o [3:0] $end
$var wire 1 F hsync_o $end
$var wire 4 G red_o [3:0] $end
$var wire 1 # reset_ni $end
$var wire 1 H vsync_o $end
$upscope $end
$upscope $end
$upscope $end
$enddefinitions $end
#0
$dumpvars
zH
b0 G
zF
b0 E
b0 D
zC
zB
zA
1@
z?
z>
z=
bz <
0;
b0 :
bx 9
b0 8
b0 7
b0 6
bx 5
x4
x3
b0 2
bx 1
b0 0
b1 /
b0 .
bx -
b0 ,
bx +
0*
0)
b0 (
x'
x&
b0 %
b0 $
0#
0"
0!
$end
#1990
1'
1"
#3980
0'
0"
#4160
1!
#5970
1'
1"
#7960
0'
0"
#8320
0!
#9950
1'
1"
#11940
0'
0"
#12480
1!
#13930
1'
1"
#15920
0'
0"
#16640
0!
#17910
1'
1"
#19900
0'
0"
#20800
1!
#21890
1'
1"
#23880
0'
0"
#24960
0!
#25870
1'
1"
#27860
0'
0"
#29120
1!
#29850
1'
1"
#31840
0'
0"
#33280
0!
#33830
1'
1"
#35820
0'
0"
#37440
1!
#37810
1'
1"
#39800
0'
0"
#40000
1#
#41600
0!
#41790
b10 /
x)
x*
b1 0
bx :
bx 2
bx $
bx D
bx ,
bx %
bx E
bx .
bx (
bx G
bx 6
1'
1"
#43780
0'
0"
#45760
1!
#45770
b11 /
b10 0
1'
1"
#47760
0'
0"
#49750
b100 /
b11 0
1'
1"
#49920
0!
#51740
0'
0"
#53730
b101 /
b100 0
1'
1"
#54080
1!
#55720
0'
0"
#57710
b110 /
b101 0
1'
1"
#58240
0!
#59700
0'
0"
#61690
b111 /
b110 0
1'
1"
#62400
1!
#63680
0'
0"
#65670
b1000 /
b111 0
1'
1"
#66560
0!
#67660
0'
0"
#69650
b1001 /
b1000 0
1'
1"
#70720
1!
#71640
0'
0"
#73630
b1010 /
b1001 0
1'
1"
#74880
0!
#75620
0'
0"
#77610
b1011 /
b1010 0
1'
1"
#79040
1!
#79600
0'
0"
#81590
b1100 /
b1011 0
1'
1"
#83200
0!
#83580
0'
0"
#85570
b1101 /
b1100 0
1'
1"
#87360
1!
#87560
0'
0"
#89550
b1110 /
b1101 0
1'
1"
#91520
0!
#91540
0'
0"
#93530
b1111 /
b1110 0
1'
1"
#95520
0'
0"
#95680
1!
#97510
b10000 /
b1111 0
1'
1"
#99500
0'
0"
#99840
0!
#101490
b10001 /
b10000 0
1'
1"
#103480
0'
0"
#104000
1!
#105470
b10010 /
b10001 0
1'
1"
#107460
0'
0"
#108160
0!
#109450
b10011 /
b10010 0
1'
1"
#111440
0'
0"
#112320
1!
#113430
b10100 /
b10011 0
1'
1"
#115420
0'
0"
#116480
0!
#117410
b10101 /
b10100 0
1'
1"
#119400
0'
0"
#120640
1!
#121390
b10110 /
b10101 0
1'
1"
#123380
0'
0"
#124800
0!
#125370
b10111 /
b10110 0
1'
1"
#127360
0'
0"
#128960
1!
#129350
b11000 /
b10111 0
1'
1"
#131340
0'
0"
#133120
0!
#133330
b11001 /
b11000 0
1'
1"
#135320
0'
0"
#137280
1!
#137310
b11010 /
b11001 0
1'
1"
#139300
0'
0"
#141290
b11011 /
b11010 0
1'
1"
#141440
0!
#143280
0'
0"
#145270
b11100 /
b11011 0
1'
1"
#145600
1!
#147260
0'
0"
#149250
b11101 /
b11100 0
1'
1"
#149760
0!
#151240
0'
0"
#153230
b11110 /
b11101 0
1'
1"
#153920
1!
#155220
0'
0"
#157210
b11111 /
b11110 0
1'
1"
#158080
0!
#159200
0'
0"
#161190
b100000 /
b11111 0
1'
1"
#162240
1!
#163180
0'
0"
#165170
b100001 /
b100000 0
1'
1"
#166400
0!
#167160
0'
0"
#169150
b100010 /
b100001 0
1'
1"
#170560
1!
#171140
0'
0"
#173130
b100011 /
b100010 0
1'
1"
#174720
0!
#175120
0'
0"
#177110
b100100 /
b100011 0
1'
1"
#178880
1!
#179100
0'
0"
#181090
b100101 /
b100100 0
1'
1"
#183040
0!
#183080
0'
0"
#185070
b100110 /
b100101 0
1'
1"
#187060
0'
0"
#187200
1!
#189050
b100111 /
b100110 0
1'
1"
#191040
0'
0"
#191360
0!
#193030
b101000 /
b100111 0
1'
1"
#195020
0'
0"
#195520
1!
#197010
b101001 /
b101000 0
1'
1"
#199000
0'
0"
#199680
0!
#200990
b101010 /
b101001 0
1'
1"
#202980
0'
0"
#203840
1!
#204970
b101011 /
b101010 0
1'
1"
#206960
0'
0"
#208000
0!
#208950
b101100 /
b101011 0
1'
1"
#210940
0'
0"
#212160
1!
#212930
b101101 /
b101100 0
1'
1"
#214920
0'
0"
#216320
0!
#216910
b101110 /
b101101 0
1'
1"
#218900
0'
0"
#220480
1!
#220890
b101111 /
b101110 0
1'
1"
#222880
0'
0"
#224640
0!
#224870
b110000 /
b101111 0
1'
1"
#226860
0'
0"
#228800
1!
#228850
b110001 /
b110000 0
1'
1"
#230840
0'
0"
#232830
b110010 /
b110001 0
1'
1"
#232960
0!
#234820
0'
0"
#236810
b110011 /
b110010 0
1'
1"
#237120
1!
#238800
0'
0"
#240790
b110100 /
b110011 0
1'
1"
#241280
0!
#242780
0'
0"
#244770
b110101 /
b110100 0
1'
1"
#245440
1!
#246760
0'
0"
#248750
b110110 /
b110101 0
1'
1"
#249600
0!
#250740
0'
0"
#252730
b110111 /
b110110 0
1'
1"
#253760
1!
#254720
0'
0"
#256710
b111000 /
b110111 0
1'
1"
#257920
0!
#258700
0'
0"
#260690
b111001 /
b111000 0
1'
1"
#262080
1!
#262680
0'
0"
#264670
b111010 /
b111001 0
1'
1"
#266240
0!
#266660
0'
0"
#268650
b111011 /
b111010 0
1'
1"
#270400
1!
#270640
0'
0"
#272630
b111100 /
b111011 0
1'
1"
#274560
0!
#274620
0'
0"
#276610
b111101 /
b111100 0
1'
1"
#278600
0'
0"
#278720
1!
#280590
b111110 /
b111101 0
1'
1"
#282580
0'
0"
#282880
0!
#284570
b111111 /
b111110 0
1'
1"
#286560
0'
0"
#287040
1!
#288550
b1000000 /
b111111 0
1'
1"
#290540
0'
0"
#291200
0!
#292530
b1000001 /
b1000000 0
1'
1"
#294520
0'
0"
#295360
1!
#296510
b1000010 /
b1000001 0
1'
1"
#298500
0'
0"
#299520
0!
#300490
b1000011 /
b1000010 0
1'
1"
#302480
0'
0"
#303680
1!
#304470
b1000100 /
b1000011 0
1'
1"
#306460
0'
0"
#307840
0!
#308450
b1000101 /
b1000100 0
1'
1"
#310440
0'
0"
#312000
1!
#312430
b1000110 /
b1000101 0
1'
1"
#314420
0'
0"
#316160
0!
#316410
b1000111 /
b1000110 0
1'
1"
#318400
0'
0"
#320320
1!
#320390
b1001000 /
b1000111 0
1'
1"
#322380
0'
0"
#324370
b1001001 /
b1001000 0
1'
1"
#324480
0!
#326360
0'
0"
#328350
b1001010 /
b1001001 0
1'
1"
#328640
1!
#330340
0'
0"
#332330
b1001011 /
b1001010 0
1'
1"
#332800
0!
#334320
0'
0"
#336310
b1001100 /
b1001011 0
1'
1"
#336960
1!
#338300
0'
0"
#340290
b1001101 /
b1001100 0
1'
1"
#341120
0!
#342280
0'
0"
#344270
b1001110 /
b1001101 0
1'
1"
#345280
1!
#346260
0'
0"
#348250
b1001111 /
b1001110 0
1'
1"
#349440
0!
#350240
0'
0"
#352230
b1010000 /
b1001111 0
1'
1"
#353600
1!
#354220
0'
0"
#356210
b1010001 /
b1010000 0
1'
1"
#357760
0!
#358200
0'
0"
#360190
b1010010 /
b1010001 0
1'
1"
#361920
1!
#362180
0'
0"
#364170
b1010011 /
b1010010 0
1'
1"
#366080
0!
#366160
0'
0"
#368150
b1010100 /
b1010011 0
1'
1"
#370140
0'
0"
#370240
1!
#372130
b1010101 /
b1010100 0
1'
1"
#374120
0'
0"
#374400
0!
#376110
b1010110 /
b1010101 0
1'
1"
#378100
0'
0"
#378560
1!
#380090
b1010111 /
b1010110 0
1'
1"
#382080
0'
0"
#382720
0!
#384070
b1011000 /
b1010111 0
1'
1"
#386060
0'
0"
#386880
1!
#388050
b1011001 /
b1011000 0
1'
1"
#390040
0'
0"
#391040
0!
#392030
b1011010 /
b1011001 0
1'
1"
#394020
0'
0"
#395200
1!
#396010
b1011011 /
b1011010 0
1'
1"
#398000
0'
0"
#399360
0!
#399990
b1011100 /
b1011011 0
1'
1"
#401980
0'
0"
#403520
1!
#403970
b1011101 /
b1011100 0
1'
1"
#405960
0'
0"
#407680
0!
#407950
b1011110 /
b1011101 0
1'
1"
#409940
0'
0"
#411840
1!
#411930
b1011111 /
b1011110 0
1'
1"
#413920
0'
0"
#415910
b1100000 /
b1011111 0
1'
1"
#416000
0!
#417900
0'
0"
#419890
b1100001 /
b1100000 0
1'
1"
#420160
1!
#421880
0'
0"
#423870
b1100010 /
b1100001 0
1'
1"
#424320
0!
#425860
0'
0"
#427850
b1100011 /
b1100010 0
1'
1"
#428480
1!
#429840
0'
0"
#431830
b1100100 /
b1100011 0
1'
1"
#432640
0!
#433820
0'
0"
#435810
b1100101 /
b1100100 0
1'
1"
#436800
1!
#437800
0'
0"
#439790
b1100110 /
b1100101 0
1'
1"
#440960
0!
#441780
0'
0"
#443770
b1100111 /
b1100110 0
1'
1"
#445120
1!
#445760
0'
0"
#447750
b1101000 /
b1100111 0
1'
1"
#449280
0!
#449740
0'
0"
#451730
b1101001 /
b1101000 0
1'
1"
#453440
1!
#453720
0'
0"
#455710
b1101010 /
b1101001 0
1'
1"
#457600
0!
#457700
0'
0"
#459690
b1101011 /
b1101010 0
1'
1"
#461680
0'
0"
#461760
1!
#463670
b1101100 /
b1101011 0
1'
1"
#465660
0'
0"
#465920
0!
#467650
b1101101 /
b1101100 0
1'
1"
#469640
0'
0"
#470080
1!
#471630
b1101110 /
b1101101 0
1'
1"
#473620
0'
0"
#474240
0!
#475610
b1101111 /
b1101110 0
1'
1"
#477600
0'
0"
#478400
1!
#479590
b1110000 /
b1101111 0
1'
1"
#481580
0'
0"
#482560
0!
#483570
b1110001 /
b1110000 0
1'
1"
#485560
0'
0"
#486720
1!
#487550
b1110010 /
b1110001 0
1'
1"
#489540
0'
0"
#490880
0!
#491530
b1110011 /
b1110010 0
1'
1"
#493520
0'
0"
#495040
1!
#495510
b1110100 /
b1110011 0
1'
1"
#497500
0'
0"
#499200
0!
#499490
b1110101 /
b1110100 0
1'
1"
#501480
0'
0"
#503360
1!
#503470
b1110110 /
b1110101 0
1'
1"
#505460
0'
0"
#507450
b1110111 /
b1110110 0
1'
1"
#507520
0!
#509440
0'
0"
#511430
b1111000 /
b1110111 0
1'
1"
#511680
1!
#513420
0'
0"
#515410
b1111001 /
b1111000 0
1'
1"
#515840
0!
#517400
0'
0"
#519390
b1111010 /
b1111001 0
1'
1"
#520000
1!
#521380
0'
0"
#523370
b1111011 /
b1111010 0
1'
1"
#524160
0!
#525360
0'
0"
#527350
b1111100 /
b1111011 0
1'
1"
#528320
1!
#529340
0'
0"
#531330
b1111101 /
b1111100 0
1'
1"
#532480
0!
#533320
0'
0"
#535310
b1111110 /
b1111101 0
1'
1"
#536640
1!
#537300
0'
0"
#539290
b1111111 /
b1111110 0
1'
1"
#540800
0!
#541280
0'
0"
#543270
b10000000 /
b1111111 0
1'
1"
#544960
1!
#545260
0'
0"
#547250
b10000001 /
b10000000 0
1'
1"
#549120
0!
#549240
0'
0"
#551230
b10000010 /
b10000001 0
1'
1"
#553220
0'
0"
#553280
1!
#555210
b10000011 /
b10000010 0
1'
1"
#557200
0'
0"
#557440
0!
#559190
b10000100 /
b10000011 0
1'
1"
#561180
0'
0"
#561600
1!
#563170
b10000101 /
b10000100 0
1'
1"
#565160
0'
0"
#565760
0!
#567150
b10000110 /
b10000101 0
1'
1"
#569140
0'
0"
#569920
1!
#571130
b10000111 /
b10000110 0
1'
1"
#573120
0'
0"
#574080
0!
#575110
b10001000 /
b10000111 0
1'
1"
#577100
0'
0"
#578240
1!
#579090
b10001001 /
b10001000 0
1'
1"
#581080
0'
0"
#582400
0!
#583070
b10001010 /
b10001001 0
1'
1"
#585060
0'
0"
#586560
1!
#587050
b10001011 /
b10001010 0
1'
1"
#589040
0'
0"
#590720
0!
#591030
b10001100 /
b10001011 0
1'
1"
#593020
0'
0"
#594880
1!
#595010
b10001101 /
b10001100 0
1'
1"
#597000
0'
0"
#598990
b10001110 /
b10001101 0
1'
1"
#599040
0!
#600980
0'
0"
#602970
b10001111 /
b10001110 0
1'
1"
#603200
1!
#604960
0'
0"
#606950
b10010000 /
b10001111 0
1'
1"
#607360
0!
#608940
0'
0"
#610930
b10010001 /
b10010000 0
1'
1"
#611520
1!
#612920
0'
0"
#614910
b10010010 /
b10010001 0
1'
1"
#615680
0!
#616900
0'
0"
#618890
b10010011 /
b10010010 0
1'
1"
#619840
1!
#620880
0'
0"
#622870
b10010100 /
b10010011 0
1'
1"
#624000
0!
#624860
0'
0"
#626850
b10010101 /
b10010100 0
1'
1"
#628160
1!
#628840
0'
0"
#630830
b10010110 /
b10010101 0
1'
1"
#632320
0!
#632820
0'
0"
#634810
b10010111 /
b10010110 0
1'
1"
#636480
1!
#636800
0'
0"
#638790
b10011000 /
b10010111 0
1'
1"
#640640
0!
#640780
0'
0"
#642770
b10011001 /
b10011000 0
1'
1"
#644760
0'
0"
#644800
1!
#646750
b10011010 /
b10011001 0
1'
1"
#648740
0'
0"
#648960
0!
#650730
b10011011 /
b10011010 0
1'
1"
#652720
0'
0"
#653120
1!
#654710
b10011100 /
b10011011 0
1'
1"
#656700
0'
0"
#657280
0!
#658690
b10011101 /
b10011100 0
1'
1"
#660680
0'
0"
#661440
1!
#662670
b10011110 /
b10011101 0
1'
1"
#664660
0'
0"
#665600
0!
#666650
b10011111 /
b10011110 0
1'
1"
#668640
0'
0"
#669760
1!
#670630
b10100000 /
b10011111 0
1'
1"
#672620
0'
0"
#673920
0!
#674610
b10100001 /
b10100000 0
1'
1"
#676600
0'
0"
#678080
1!
#678590
b10100010 /
b10100001 0
1'
1"
#680580
0'
0"
#682240
0!
#682570
b10100011 /
b10100010 0
1'
1"
#684560
0'
0"
#686400
1!
#686550
b10100100 /
b10100011 0
1'
1"
#688540
0'
0"
#690530
b10100101 /
b10100100 0
1'
1"
#690560
0!
#692520
0'
0"
#694510
b10100110 /
b10100101 0
1'
1"
#694720
1!
#696500
0'
0"
#698490
b10100111 /
b10100110 0
1'
1"
#698880
0!
#700480
0'
0"
#702470
b10101000 /
b10100111 0
1'
1"
#703040
1!
#704460
0'
0"
#706450
b10101001 /
b10101000 0
1'
1"
#707200
0!
#708440
0'
0"
#710430
b10101010 /
b10101001 0
1'
1"
#711360
1!
#712420
0'
0"
#714410
b10101011 /
b10101010 0
1'
1"
#715520
0!
#716400
0'
0"
#718390
b10101100 /
b10101011 0
1'
1"
#719680
1!
#720380
0'
0"
#722370
b10101101 /
b10101100 0
1'
1"
#723840
0!
#724360
0'
0"
#726350
b10101110 /
b10101101 0
1'
1"
#728000
1!
#728340
0'
0"
#730330
b10101111 /
b10101110 0
1'
1"
#732160
0!
#732320
0'
0"
#734310
b10110000 /
b10101111 0
1'
1"
#736300
0'
0"
#736320
1!
#738290
b10110001 /
b10110000 0
1'
1"
#740280
0'
0"
#740480
0!
#742270
b10110010 /
b10110001 0
1'
1"
#744260
0'
0"
#744640
1!
#746250
b10110011 /
b10110010 0
1'
1"
#748240
0'
0"
#748800
0!
#750230
b10110100 /
b10110011 0
1'
1"
#752220
0'
0"
#752960
1!
#754210
b10110101 /
b10110100 0
1'
1"
#756200
0'
0"
#757120
0!
#758190
b10110110 /
b10110101 0
1'
1"
#760180
0'
0"
#761280
1!
#762170
b10110111 /
b10110110 0
1'
1"
#764160
0'
0"
#765440
0!
#766150
b10111000 /
b10110111 0
1'
1"
#768140
0'
0"
#769600
1!
#770130
b10111001 /
b10111000 0
1'
1"
#772120
0'
0"
#773760
0!
#774110
b10111010 /
b10111001 0
1'
1"
#776100
0'
0"
#777920
1!
#778090
b10111011 /
b10111010 0
1'
1"
#780080
0'
0"
#782070
b10111100 /
b10111011 0
1'
1"
#782080
0!
#784060
0'
0"
#786050
b10111101 /
b10111100 0
1'
1"
#786240
1!
#788040
0'
0"
#790030
b10111110 /
b10111101 0
1'
1"
#790400
0!
#792020
0'
0"
#794010
b10111111 /
b10111110 0
1'
1"
#794560
1!
#796000
0'
0"
#797990
b11000000 /
b10111111 0
1'
1"
#798720
0!
#799980
0'
0"
#801970
b11000001 /
b11000000 0
1'
1"
#802880
1!
#803960
0'
0"
#805950
b11000010 /
b11000001 0
1'
1"
#807040
0!
#807940
0'
0"
#809930
b11000011 /
b11000010 0
1'
1"
#811200
1!
#811920
0'
0"
#813910
b11000100 /
b11000011 0
1'
1"
#815360
0!
#815900
0'
0"
#817890
b11000101 /
b11000100 0
1'
1"
#819520
1!
#819880
0'
0"
#821870
b11000110 /
b11000101 0
1'
1"
#823680
0!
#823860
0'
0"
#825850
b11000111 /
b11000110 0
1'
1"
#827840
0'
0"
1!
#829830
b11001000 /
b11000111 0
1'
1"
#831820
0'
0"
#832000
0!
#833810
b11001001 /
b11001000 0
1'
1"
#835800
0'
0"
#836160
1!
#837790
b11001010 /
b11001001 0
1'
1"
#839780
0'
0"
#840320
0!
#841770
b11001011 /
b11001010 0
1'
1"
#843760
0'
0"
#844480
1!
#845750
b11001100 /
b11001011 0
1'
1"
#847740
0'
0"
#848640
0!
#849730
b11001101 /
b11001100 0
1'
1"
#851720
0'
0"
#852800
1!
#853710
b11001110 /
b11001101 0
1'
1"
#855700
0'
0"
#856960
0!
#857690
b11001111 /
b11001110 0
1'
1"
#859680
0'
0"
#861120
1!
#861670
b11010000 /
b11001111 0
1'
1"
#863660
0'
0"
#865280
0!
#865650
b11010001 /
b11010000 0
1'
1"
#867640
0'
0"
#869440
1!
#869630
b11010010 /
b11010001 0
1'
1"
#871620
0'
0"
#873600
0!
#873610
b11010011 /
b11010010 0
1'
1"
#875600
0'
0"
#877590
b11010100 /
b11010011 0
1'
1"
#877760
1!
#879580
0'
0"
#881570
b11010101 /
b11010100 0
1'
1"
#881920
0!
#883560
0'
0"
#885550
b11010110 /
b11010101 0
1'
1"
#886080
1!
#887540
0'
0"
#889530
b11010111 /
b11010110 0
1'
1"
#890240
0!
#891520
0'
0"
#893510
b11011000 /
b11010111 0
1'
1"
#894400
1!
#895500
0'
0"
#897490
b11011001 /
b11011000 0
1'
1"
#898560
0!
#899480
0'
0"
#901470
b11011010 /
b11011001 0
1'
1"
#902720
1!
#903460
0'
0"
#905450
b11011011 /
b11011010 0
1'
1"
#906880
0!
#907440
0'
0"
#909430
b11011100 /
b11011011 0
1'
1"
#911040
1!
#911420
0'
0"
#913410
b11011101 /
b11011100 0
1'
1"
#915200
0!
#915400
0'
0"
#917390
b11011110 /
b11011101 0
1'
1"
#919360
1!
#919380
0'
0"
#921370
b11011111 /
b11011110 0
1'
1"
#923360
0'
0"
#923520
0!
#925350
b11100000 /
b11011111 0
1'
1"
#927340
0'
0"
#927680
1!
#929330
b11100001 /
b11100000 0
1'
1"
#931320
0'
0"
#931840
0!
#933310
b11100010 /
b11100001 0
1'
1"
#935300
0'
0"
#936000
1!
#937290
b11100011 /
b11100010 0
1'
1"
#939280
0'
0"
#940160
0!
#941270
b11100100 /
b11100011 0
1'
1"
#943260
0'
0"
#944320
1!
#945250
b11100101 /
b11100100 0
1'
1"
#947240
0'
0"
#948480
0!
#949230
b11100110 /
b11100101 0
1'
1"
#951220
0'
0"
#952640
1!
#953210
b11100111 /
b11100110 0
1'
1"
#955200
0'
0"
#956800
0!
#957190
b11101000 /
b11100111 0
1'
1"
#959180
0'
0"
#960960
1!
#961170
b11101001 /
b11101000 0
1'
1"
#963160
0'
0"
#965120
0!
#965150
b11101010 /
b11101001 0
1'
1"
#967140
0'
0"
#969130
b11101011 /
b11101010 0
1'
1"
#969280
1!
#971120
0'
0"
#973110
b11101100 /
b11101011 0
1'
1"
#973440
0!
#975100
0'
0"
#977090
b11101101 /
b11101100 0
1'
1"
#977600
1!
#979080
0'
0"
#981070
b11101110 /
b11101101 0
1'
1"
#981760
0!
#983060
0'
0"
#985050
b11101111 /
b11101110 0
1'
1"
#985920
1!
#987040
0'
0"
#989030
b11110000 /
b11101111 0
1'
1"
#990080
0!
#991020
0'
0"
#993010
b11110001 /
b11110000 0
1'
1"
#994240
1!
#995000
0'
0"
#996990
b11110010 /
b11110001 0
1'
1"
#998400
0!
#998980
0'
0"
#1000970
b11110011 /
b11110010 0
1'
1"
#1002560
1!
#1002960
0'
0"
#1004950
b11110100 /
b11110011 0
1'
1"
#1006720
0!
#1006940
0'
0"
#1008930
b11110101 /
b11110100 0
1'
1"
#1010880
1!
#1010920
0'
0"
#1012910
b11110110 /
b11110101 0
1'
1"
#1014900
0'
0"
#1015040
0!
#1016890
b11110111 /
b11110110 0
1'
1"
#1018880
0'
0"
#1019200
1!
#1020870
b11111000 /
b11110111 0
1'
1"
#1022860
0'
0"
#1023360
0!
#1024850
b11111001 /
b11111000 0
1'
1"
#1026840
0'
0"
#1027520
1!
#1028830
b11111010 /
b11111001 0
1'
1"
#1030820
0'
0"
#1031680
0!
#1032810
b11111011 /
b11111010 0
1'
1"
#1034800
0'
0"
#1035840
1!
#1036790
b11111100 /
b11111011 0
1'
1"
#1038780
0'
0"
#1040000
0!
#1040770
b11111101 /
b11111100 0
1'
1"
#1042760
0'
0"
#1044160
1!
#1044750
b11111110 /
b11111101 0
1'
1"
#1046740
0'
0"
#1048320
0!
#1048730
b11111111 /
b11111110 0
1'
1"
#1050720
0'
0"
#1052480
1!
#1052710
b100000000 /
b11111111 0
1'
1"
#1054700
0'
0"
#1056640
0!
#1056690
b100000001 /
b100000000 0
1'
1"
#1058680
0'
0"
#1060670
b100000010 /
b100000001 0
1'
1"
#1060800
1!
#1062660
0'
0"
#1064650
b100000011 /
b100000010 0
1'
1"
#1064960
0!
#1066640
0'
0"
#1068630
b100000100 /
b100000011 0
1'
1"
#1069120
1!
#1070620
0'
0"
#1072610
b100000101 /
b100000100 0
1'
1"
#1073280
0!
#1074600
0'
0"
#1076590
b100000110 /
b100000101 0
1'
1"
#1077440
1!
#1078580
0'
0"
#1080570
b100000111 /
b100000110 0
1'
1"
#1081600
0!
#1082560
0'
0"
#1084550
b100001000 /
b100000111 0
1'
1"
#1085760
1!
#1086540
0'
0"
#1088530
b100001001 /
b100001000 0
1'
1"
#1089920
0!
#1090520
0'
0"
#1092510
b100001010 /
b100001001 0
1'
1"
#1094080
1!
#1094500
0'
0"
#1096490
b100001011 /
b100001010 0
1'
1"
#1098240
0!
#1098480
0'
0"
#1100470
b100001100 /
b100001011 0
1'
1"
#1102400
1!
#1102460
0'
0"
#1104450
b100001101 /
b100001100 0
1'
1"
#1106440
0'
0"
#1106560
0!
#1108430
b100001110 /
b100001101 0
1'
1"
#1110420
0'
0"
#1110720
1!
#1112410
b100001111 /
b100001110 0
1'
1"
#1114400
0'
0"
#1114880
0!
#1116390
b100010000 /
b100001111 0
1'
1"
#1118380
0'
0"
#1119040
1!
#1120370
b100010001 /
b100010000 0
1'
1"
#1122360
0'
0"
#1123200
0!
#1124350
b100010010 /
b100010001 0
1'
1"
#1126340
0'
0"
#1127360
1!
#1128330
b100010011 /
b100010010 0
1'
1"
#1130320
0'
0"
#1131520
0!
#1132310
b100010100 /
b100010011 0
1'
1"
#1134300
0'
0"
#1135680
1!
#1136290
b100010101 /
b100010100 0
1'
1"
#1138280
0'
0"
#1139840
0!
#1140270
b100010110 /
b100010101 0
1'
1"
#1142260
0'
0"
#1144000
1!
#1144250
b100010111 /
b100010110 0
1'
1"
#1146240
0'
0"
#1148160
0!
#1148230
b100011000 /
b100010111 0
1'
1"
#1150220
0'
0"
#1152210
b100011001 /
b100011000 0
1'
1"
#1152320
1!
#1154200
0'
0"
#1156190
b100011010 /
b100011001 0
1'
1"
#1156480
0!
#1158180
0'
0"
#1160170
b100011011 /
b100011010 0
1'
1"
#1160640
1!
#1162160
0'
0"
#1164150
b100011100 /
b100011011 0
1'
1"
#1164800
0!
#1166140
0'
0"
#1168130
b100011101 /
b100011100 0
1'
1"
#1168960
1!
#1170120
0'
0"
#1172110
b100011110 /
b100011101 0
1'
1"
#1173120
0!
#1174100
0'
0"
#1176090
b100011111 /
b100011110 0
1'
1"
#1177280
1!
#1178080
0'
0"
#1180070
b100100000 /
b100011111 0
1'
1"
#1181440
0!
#1182060
0'
0"
#1184050
b100100001 /
b100100000 0
1'
1"
#1185600
1!
#1186040
0'
0"
#1188030
b100100010 /
b100100001 0
1'
1"
#1189760
0!
#1190020
0'
0"
#1192010
b100100011 /
b100100010 0
1'
1"
#1193920
1!
#1194000
0'
0"
#1195990
b100100100 /
b100100011 0
1'
1"
#1197980
0'
0"
#1198080
0!
#1199970
b100100101 /
b100100100 0
1'
1"
#1201960
0'
0"
#1202240
1!
#1203950
b100100110 /
b100100101 0
1'
1"
#1205940
0'
0"
#1206400
0!
#1207930
b100100111 /
b100100110 0
1'
1"
#1209920
0'
0"
#1210560
1!
#1211910
b100101000 /
b100100111 0
1'
1"
#1213900
0'
0"
#1214720
0!
#1215890
b100101001 /
b100101000 0
1'
1"
#1217880
0'
0"
#1218880
1!
#1219870
b100101010 /
b100101001 0
1'
1"
#1221860
0'
0"
#1223040
0!
#1223850
b100101011 /
b100101010 0
1'
1"
#1225840
0'
0"
#1227200
1!
#1227830
b100101100 /
b100101011 0
1'
1"
#1229820
0'
0"
#1231360
0!
#1231810
b100101101 /
b100101100 0
1'
1"
#1233800
0'
0"
#1235520
1!
#1235790
b100101110 /
b100101101 0
1'
1"
#1237780
0'
0"
#1239680
0!
#1239770
b100101111 /
b100101110 0
1'
1"
#1241760
0'
0"
#1243750
b100110000 /
b100101111 0
1'
1"
#1243840
1!
#1245740
0'
0"
#1247730
b100110001 /
b100110000 0
1'
1"
#1248000
0!
#1249720
0'
0"
#1251710
b100110010 /
b100110001 0
1'
1"
#1252160
1!
#1253700
0'
0"
#1255690
b100110011 /
b100110010 0
1'
1"
#1256320
0!
#1257680
0'
0"
#1259670
b100110100 /
b100110011 0
1'
1"
#1260480
1!
#1261660
0'
0"
#1263650
b100110101 /
b100110100 0
1'
1"
#1264640
0!
#1265640
0'
0"
#1267630
b100110110 /
b100110101 0
1'
1"
#1268800
1!
#1269620
0'
0"
#1271610
b100110111 /
b100110110 0
1'
1"
#1272960
0!
#1273600
0'
0"
#1275590
b100111000 /
b100110111 0
1'
1"
#1277120
1!
#1277580
0'
0"
#1279570
b100111001 /
b100111000 0
1'
1"
#1281280
0!
#1281560
0'
0"
#1283550
b100111010 /
b100111001 0
1'
1"
#1285440
1!
#1285540
0'
0"
#1287530
b100111011 /
b100111010 0
1'
1"
#1289520
0'
0"
#1289600
0!
#1291510
b100111100 /
b100111011 0
1'
1"
#1293500
0'
0"
#1293760
1!
#1295490
b100111101 /
b100111100 0
1'
1"
#1297480
0'
0"
#1297920
0!
#1299470
b100111110 /
b100111101 0
1'
1"
#1301460
0'
0"
#1302080
1!
#1303450
b100111111 /
b100111110 0
1'
1"
#1305440
0'
0"
#1306240
0!
#1307430
b101000000 /
b100111111 0
1'
1"
#1309420
0'
0"
#1310400
1!
#1311410
b101000001 /
b101000000 0
1'
1"
#1313400
0'
0"
#1314560
0!
#1315390
b101000010 /
b101000001 0
1'
1"
#1317380
0'
0"
#1318720
1!
#1319370
b101000011 /
b101000010 0
1'
1"
#1321360
0'
0"
#1322880
0!
#1323350
b101000100 /
b101000011 0
1'
1"
#1325340
0'
0"
#1327040
1!
#1327330
b101000101 /
b101000100 0
1'
1"
#1329320
0'
0"
#1331200
0!
#1331310
b101000110 /
b101000101 0
1'
1"
#1333300
0'
0"
#1335290
b101000111 /
b101000110 0
1'
1"
#1335360
1!
#1337280
0'
0"
#1339270
b101001000 /
b101000111 0
1'
1"
