src/main_tb.vcd
$date
	Sat Nov 20 03:21:56 2021
$end
$version
	Icarus Verilog
$end
$timescale
	1ps
$end
$scope module template_tb $end
$var reg 1 ! clk_i $end
$var reg 1 " px_clk $end
$var reg 1 # reset_ni $end
$scope module dut $end
$var wire 4 $ blue_o [3:0] $end
$var wire 1 ! clk_i $end
$var wire 4 % green_o [3:0] $end
$var wire 1 & pll_lock $end
$var wire 1 ' px_clk $end
$var wire 4 ( red_o [3:0] $end
$var wire 1 # reset_ni $end
$var wire 1 ) vsync_o $end
$var wire 1 * hsync_o $end
$var reg 4 + blue_d [3:0] $end
$var reg 4 , blue_q [3:0] $end
$var reg 4 - green_d [3:0] $end
$var reg 4 . green_q [3:0] $end
$var reg 10 / horizontal_counter_d [9:0] $end
$var reg 10 0 horizontal_counter_q [9:0] $end
$var reg 4 1 hsync_d [3:0] $end
$var reg 4 2 hsync_q [3:0] $end
$var reg 1 3 pll_lock_r $end
$var reg 1 4 px_clk_r $end
$var reg 4 5 red_d [3:0] $end
$var reg 4 6 red_q [3:0] $end
$var reg 10 7 vertical_counter_d [9:0] $end
$var reg 10 8 vertical_counter_q [9:0] $end
$var reg 4 9 vsync_d [3:0] $end
$var reg 4 : vsync_q [3:0] $end
$scope module u_pll $end
$var wire 1 ! clock_in $end
$var wire 1 ' clock_out $end
$var wire 1 & locked $end
$scope module uut $end
$var wire 1 ; BYPASS $end
$var wire 8 < DYNAMICDELAY [7:0] $end
$var wire 1 = EXTFEEDBACK $end
$var wire 1 > LATCHINPUTVALUE $end
$var wire 1 & LOCK $end
$var wire 1 ! PACKAGEPIN $end
$var wire 1 ' PLLOUTCORE $end
$var wire 1 ? PLLOUTGLOBAL $end
$var wire 1 @ RESETB $end
$var wire 1 A SCLK $end
$var wire 1 B SDI $end
$var wire 1 C SDO $end
$upscope $end
$upscope $end
$scope module u_vga $end
$var wire 4 D blue_o [3:0] $end
$var wire 1 ' clk_i $end
$var wire 4 E green_o [3:0] $end
$var wire 1 F hsync_o $end
$var wire 4 G red_o [3:0] $end
$var wire 1 # reset_ni $end
$var wire 1 H vsync_o $end
$upscope $end
$upscope $end
$upscope $end
$enddefinitions $end
#0
$dumpvars
zH
b0 G
zF
b0 E
b0 D
zC
zB
zA
1@
z?
z>
z=
bz <
0;
b1 :
b0 9
b0 8
b0 7
b0 6
b0 5
x4
x3
b1 2
b0 1
b0 0
b0 /
b0 .
b0 -
b0 ,
b0 +
1*
1)
b0 (
x'
x&
b0 %
b0 $
0#
0"
0!
$end
#1990
1'
1"
#3980
0'
0"
#4160
1!
#5970
1'
1"
#7960
0'
0"
#8320
0!
#9950
1'
1"
#11940
0'
0"
#12480
1!
#13930
1'
1"
#15920
0'
0"
#16640
0!
#17910
1'
1"
#19900
0'
0"
#20800
1!
#21890
1'
1"
#23880
0'
0"
#24960
0!
#25870
1'
1"
#27860
0'
0"
#29120
1!
#29850
1'
1"
#31840
0'
0"
#33280
0!
#33830
1'
1"
#35820
0'
0"
#37440
1!
#37810
1'
1"
#39800
0'
0"
#40000
b1 /
b1 +
b1 -
b1 5
1#
#41600
0!
#41790
0)
0*
b10 /
b10 +
b10 -
b10 5
b1 0
b0 :
b0 2
b1 $
b1 D
b1 ,
b1 %
b1 E
b1 .
b1 (
b1 G
b1 6
1'
1"
#43780
0'
0"
#45760
1!
#45770
b11 /
b11 +
b11 -
b11 5
b10 0
b10 $
b10 D
b10 ,
b10 %
b10 E
b10 .
b10 (
b10 G
b10 6
1'
1"
#47760
0'
0"
#49750
b100 /
b100 +
b100 -
b100 5
b11 0
b11 $
b11 D
b11 ,
b11 %
b11 E
b11 .
b11 (
b11 G
b11 6
1'
1"
#49920
0!
#51740
0'
0"
#53730
b101 /
b101 +
b101 -
b101 5
b100 0
b100 $
b100 D
b100 ,
b100 %
b100 E
b100 .
b100 (
b100 G
b100 6
1'
1"
#54080
1!
#55720
0'
0"
#57710
b110 /
b110 +
b110 -
b110 5
b101 0
b101 $
b101 D
b101 ,
b101 %
b101 E
b101 .
b101 (
b101 G
b101 6
1'
1"
#58240
0!
#59700
0'
0"
#61690
b111 /
b111 +
b111 -
b111 5
b110 0
b110 $
b110 D
b110 ,
b110 %
b110 E
b110 .
b110 (
b110 G
b110 6
1'
1"
#62400
1!
#63680
0'
0"
#65670
b1000 /
b1000 +
b1000 -
b1000 5
b111 0
b111 $
b111 D
b111 ,
b111 %
b111 E
b111 .
b111 (
b111 G
b111 6
1'
1"
#66560
0!
#67660
0'
0"
#69650
b1001 /
b1001 +
b1001 -
b1001 5
b1000 0
b1000 $
b1000 D
b1000 ,
b1000 %
b1000 E
b1000 .
b1000 (
b1000 G
b1000 6
1'
1"
#70720
1!
#71640
0'
0"
#73630
b1010 /
b1010 +
b1010 -
b1010 5
b1001 0
b1001 $
b1001 D
b1001 ,
b1001 %
b1001 E
b1001 .
b1001 (
b1001 G
b1001 6
1'
1"
#74880
0!
#75620
0'
0"
#77610
b1011 /
b1011 +
b1011 -
b1011 5
b1010 0
b1010 $
b1010 D
b1010 ,
b1010 %
b1010 E
b1010 .
b1010 (
b1010 G
b1010 6
1'
1"
#79040
1!
#79600
0'
0"
#81590
b1100 /
b1100 +
b1100 -
b1100 5
b1011 0
b1011 $
b1011 D
b1011 ,
b1011 %
b1011 E
b1011 .
b1011 (
b1011 G
b1011 6
1'
1"
#83200
0!
#83580
0'
0"
#85570
b1101 /
b1101 +
b1101 -
b1101 5
b1100 0
b1100 $
b1100 D
b1100 ,
b1100 %
b1100 E
b1100 .
b1100 (
b1100 G
b1100 6
1'
1"
#87360
1!
#87560
0'
0"
#89550
b1110 /
b1110 +
b1110 -
b1110 5
b1101 0
b1101 $
b1101 D
b1101 ,
b1101 %
b1101 E
b1101 .
b1101 (
b1101 G
b1101 6
1'
1"
#91520
0!
#91540
0'
0"
#93530
b1111 /
b1111 +
b1111 -
b1111 5
b1110 0
b1110 $
b1110 D
b1110 ,
b1110 %
b1110 E
b1110 .
b1110 (
b1110 G
b1110 6
1'
1"
#95520
0'
0"
#95680
1!
#97510
b10000 /
b0 +
b0 -
b0 5
b1111 0
b1111 $
b1111 D
b1111 ,
b1111 %
b1111 E
b1111 .
b1111 (
b1111 G
b1111 6
1'
1"
#99500
0'
0"
#99840
0!
#101490
b10001 /
b1 +
b1 -
b1 5
b10000 0
b0 $
b0 D
b0 ,
b0 %
b0 E
b0 .
b0 (
b0 G
b0 6
1'
1"
#103480
0'
0"
#104000
1!
#105470
b10010 /
b10 +
b10 -
b10 5
b10001 0
b1 $
b1 D
b1 ,
b1 %
b1 E
b1 .
b1 (
b1 G
b1 6
1'
1"
#107460
0'
0"
#108160
0!
#109450
b10011 /
b11 +
b11 -
b11 5
b10010 0
b10 $
b10 D
b10 ,
b10 %
b10 E
b10 .
b10 (
b10 G
b10 6
1'
1"
#111440
0'
0"
#112320
1!
#113430
b10100 /
b100 +
b100 -
b100 5
b10011 0
b11 $
b11 D
b11 ,
b11 %
b11 E
b11 .
b11 (
b11 G
b11 6
1'
1"
#115420
0'
0"
#116480
0!
#117410
b10101 /
b101 +
b101 -
b101 5
b10100 0
b100 $
b100 D
b100 ,
b100 %
b100 E
b100 .
b100 (
b100 G
b100 6
1'
1"
#119400
0'
0"
#120640
1!
#121390
b10110 /
b110 +
b110 -
b110 5
b10101 0
b101 $
b101 D
b101 ,
b101 %
b101 E
b101 .
b101 (
b101 G
b101 6
1'
1"
#123380
0'
0"
#124800
0!
#125370
b10111 /
b111 +
b111 -
b111 5
b10110 0
b110 $
b110 D
b110 ,
b110 %
b110 E
b110 .
b110 (
b110 G
b110 6
1'
1"
#127360
0'
0"
#128960
1!
#129350
b11000 /
b1000 +
b1000 -
b1000 5
b10111 0
b111 $
b111 D
b111 ,
b111 %
b111 E
b111 .
b111 (
b111 G
b111 6
1'
1"
#131340
0'
0"
#133120
0!
#133330
b11001 /
b1001 +
b1001 -
b1001 5
b11000 0
b1000 $
b1000 D
b1000 ,
b1000 %
b1000 E
b1000 .
b1000 (
b1000 G
b1000 6
1'
1"
#135320
0'
0"
#137280
1!
#137310
b11010 /
b1010 +
b1010 -
b1010 5
b11001 0
b1001 $
b1001 D
b1001 ,
b1001 %
b1001 E
b1001 .
b1001 (
b1001 G
b1001 6
1'
1"
#139300
0'
0"
#141290
b11011 /
b1011 +
b1011 -
b1011 5
b11010 0
b1010 $
b1010 D
b1010 ,
b1010 %
b1010 E
b1010 .
b1010 (
b1010 G
b1010 6
1'
1"
#141440
0!
#143280
0'
0"
#145270
b11100 /
b1100 +
b1100 -
b1100 5
b11011 0
b1011 $
b1011 D
b1011 ,
b1011 %
b1011 E
b1011 .
b1011 (
b1011 G
b1011 6
1'
1"
#145600
1!
#147260
0'
0"
#149250
b11101 /
b1101 +
b1101 -
b1101 5
b11100 0
b1100 $
b1100 D
b1100 ,
b1100 %
b1100 E
b1100 .
b1100 (
b1100 G
b1100 6
1'
1"
#149760
0!
#151240
0'
0"
#153230
b11110 /
b1110 +
b1110 -
b1110 5
b11101 0
b1101 $
b1101 D
b1101 ,
b1101 %
b1101 E
b1101 .
b1101 (
b1101 G
b1101 6
1'
1"
#153920
1!
#155220
0'
0"
#157210
b11111 /
b1111 +
b1111 -
b1111 5
b11110 0
b1110 $
b1110 D
b1110 ,
b1110 %
b1110 E
b1110 .
b1110 (
b1110 G
b1110 6
1'
1"
#158080
0!
#159200
0'
0"
#161190
b100000 /
b0 +
b0 -
b0 5
b11111 0
b1111 $
b1111 D
b1111 ,
b1111 %
b1111 E
b1111 .
b1111 (
b1111 G
b1111 6
1'
1"
#162240
1!
#163180
0'
0"
#165170
b100001 /
b1 +
b1 -
b1 5
b100000 0
b0 $
b0 D
b0 ,
b0 %
b0 E
b0 .
b0 (
b0 G
b0 6
1'
1"
#166400
0!
#167160
0'
0"
#169150
b100010 /
b10 +
b10 -
b10 5
b100001 0
b1 $
b1 D
b1 ,
b1 %
b1 E
b1 .
b1 (
b1 G
b1 6
1'
1"
#170560
1!
#171140
0'
0"
#173130
b100011 /
b11 +
b11 -
b11 5
b100010 0
b10 $
b10 D
b10 ,
b10 %
b10 E
b10 .
b10 (
b10 G
b10 6
1'
1"
#174720
0!
#175120
0'
0"
#177110
b100100 /
b100 +
b100 -
b100 5
b100011 0
b11 $
b11 D
b11 ,
b11 %
b11 E
b11 .
b11 (
b11 G
b11 6
1'
1"
#178880
1!
#179100
0'
0"
#181090
b100101 /
b101 +
b101 -
b101 5
b100100 0
b100 $
b100 D
b100 ,
b100 %
b100 E
b100 .
b100 (
b100 G
b100 6
1'
1"
#183040
0!
#183080
0'
0"
#185070
b100110 /
b110 +
b110 -
b110 5
b100101 0
b101 $
b101 D
b101 ,
b101 %
b101 E
b101 .
b101 (
b101 G
b101 6
1'
1"
#187060
0'
0"
#187200
1!
#189050
b100111 /
b111 +
b111 -
b111 5
b100110 0
b110 $
b110 D
b110 ,
b110 %
b110 E
b110 .
b110 (
b110 G
b110 6
1'
1"
#191040
0'
0"
#191360
0!
#193030
b101000 /
b1000 +
b1000 -
b1000 5
b100111 0
b111 $
b111 D
b111 ,
b111 %
b111 E
b111 .
b111 (
b111 G
b111 6
1'
1"
#195020
0'
0"
#195520
1!
#197010
b101001 /
b1001 +
b1001 -
b1001 5
b101000 0
b1000 $
b1000 D
b1000 ,
b1000 %
b1000 E
b1000 .
b1000 (
b1000 G
b1000 6
1'
1"
#199000
0'
0"
#199680
0!
#200990
b101010 /
b1010 +
b1010 -
b1010 5
b101001 0
b1001 $
b1001 D
b1001 ,
b1001 %
b1001 E
b1001 .
b1001 (
b1001 G
b1001 6
1'
1"
#202980
0'
0"
#203840
1!
#204970
b101011 /
b1011 +
b1011 -
b1011 5
b101010 0
b1010 $
b1010 D
b1010 ,
b1010 %
b1010 E
b1010 .
b1010 (
b1010 G
b1010 6
1'
1"
#206960
0'
0"
#208000
0!
#208950
b101100 /
b1100 +
b1100 -
b1100 5
b101011 0
b1011 $
b1011 D
b1011 ,
b1011 %
b1011 E
b1011 .
b1011 (
b1011 G
b1011 6
1'
1"
#210940
0'
0"
#212160
1!
#212930
b101101 /
b1101 +
b1101 -
b1101 5
b101100 0
b1100 $
b1100 D
b1100 ,
b1100 %
b1100 E
b1100 .
b1100 (
b1100 G
b1100 6
1'
1"
#214920
0'
0"
#216320
0!
#216910
b101110 /
b1110 +
b1110 -
b1110 5
b101101 0
b1101 $
b1101 D
b1101 ,
b1101 %
b1101 E
b1101 .
b1101 (
b1101 G
b1101 6
1'
1"
#218900
0'
0"
#220480
1!
#220890
b101111 /
b1111 +
b1111 -
b1111 5
b101110 0
b1110 $
b1110 D
b1110 ,
b1110 %
b1110 E
b1110 .
b1110 (
b1110 G
b1110 6
1'
1"
#222880
0'
0"
#224640
0!
#224870
b110000 /
b0 +
b0 -
b0 5
b101111 0
b1111 $
b1111 D
b1111 ,
b1111 %
b1111 E
b1111 .
b1111 (
b1111 G
b1111 6
1'
1"
#226860
0'
0"
#228800
1!
#228850
b110001 /
b1 +
b1 -
b1 5
b110000 0
b0 $
b0 D
b0 ,
b0 %
b0 E
b0 .
b0 (
b0 G
b0 6
1'
1"
#230840
0'
0"
#232830
b110010 /
b10 +
b10 -
b10 5
b110001 0
b1 $
b1 D
b1 ,
b1 %
b1 E
b1 .
b1 (
b1 G
b1 6
1'
1"
#232960
0!
#234820
0'
0"
#236810
b110011 /
b11 +
b11 -
b11 5
b110010 0
b10 $
b10 D
b10 ,
b10 %
b10 E
b10 .
b10 (
b10 G
b10 6
1'
1"
#237120
1!
#238800
0'
0"
#240790
b110100 /
b100 +
b100 -
b100 5
b110011 0
b11 $
b11 D
b11 ,
b11 %
b11 E
b11 .
b11 (
b11 G
b11 6
1'
1"
#241280
0!
#242780
0'
0"
#244770
b110101 /
b101 +
b101 -
b101 5
b110100 0
b100 $
b100 D
b100 ,
b100 %
b100 E
b100 .
b100 (
b100 G
b100 6
1'
1"
#245440
1!
#246760
0'
0"
#248750
b110110 /
b110 +
b110 -
b110 5
b110101 0
b101 $
b101 D
b101 ,
b101 %
b101 E
b101 .
b101 (
b101 G
b101 6
1'
1"
#249600
0!
#250740
0'
0"
#252730
b110111 /
b111 +
b111 -
b111 5
b110110 0
b110 $
b110 D
b110 ,
b110 %
b110 E
b110 .
b110 (
b110 G
b110 6
1'
1"
#253760
1!
#254720
0'
0"
#256710
b111000 /
b1000 +
b1000 -
b1000 5
b110111 0
b111 $
b111 D
b111 ,
b111 %
b111 E
b111 .
b111 (
b111 G
b111 6
1'
1"
#257920
0!
#258700
0'
0"
#260690
b111001 /
b1001 +
b1001 -
b1001 5
b111000 0
b1000 $
b1000 D
b1000 ,
b1000 %
b1000 E
b1000 .
b1000 (
b1000 G
b1000 6
1'
1"
#262080
1!
#262680
0'
0"
#264670
b111010 /
b1010 +
b1010 -
b1010 5
b111001 0
b1001 $
b1001 D
b1001 ,
b1001 %
b1001 E
b1001 .
b1001 (
b1001 G
b1001 6
1'
1"
#266240
0!
#266660
0'
0"
#268650
b111011 /
b1011 +
b1011 -
b1011 5
b111010 0
b1010 $
b1010 D
b1010 ,
b1010 %
b1010 E
b1010 .
b1010 (
b1010 G
b1010 6
1'
1"
#270400
1!
#270640
0'
0"
#272630
b111100 /
b1100 +
b1100 -
b1100 5
b111011 0
b1011 $
b1011 D
b1011 ,
b1011 %
b1011 E
b1011 .
b1011 (
b1011 G
b1011 6
1'
1"
#274560
0!
#274620
0'
0"
#276610
b111101 /
b1101 +
b1101 -
b1101 5
b111100 0
b1100 $
b1100 D
b1100 ,
b1100 %
b1100 E
b1100 .
b1100 (
b1100 G
b1100 6
1'
1"
#278600
0'
0"
#278720
1!
#280590
b111110 /
b1110 +
b1110 -
b1110 5
b111101 0
b1101 $
b1101 D
b1101 ,
b1101 %
b1101 E
b1101 .
b1101 (
b1101 G
b1101 6
1'
1"
#282580
0'
0"
#282880
0!
#284570
b111111 /
b1111 +
b1111 -
b1111 5
b111110 0
b1110 $
b1110 D
b1110 ,
b1110 %
b1110 E
b1110 .
b1110 (
b1110 G
b1110 6
1'
1"
#286560
0'
0"
#287040
1!
#288550
b1000000 /
b0 +
b0 -
b0 5
b111111 0
b1111 $
b1111 D
b1111 ,
b1111 %
b1111 E
b1111 .
b1111 (
b1111 G
b1111 6
1'
1"
#290540
0'
0"
#291200
0!
#292530
b1000001 /
b1 +
b1 -
b1 5
b1000000 0
b0 $
b0 D
b0 ,
b0 %
b0 E
b0 .
b0 (
b0 G
b0 6
1'
1"
#294520
0'
0"
#295360
1!
#296510
b1000010 /
b10 +
b10 -
b10 5
b1000001 0
b1 $
b1 D
b1 ,
b1 %
b1 E
b1 .
b1 (
b1 G
b1 6
1'
1"
#298500
0'
0"
#299520
0!
#300490
b1000011 /
b11 +
b11 -
b11 5
b1000010 0
b10 $
b10 D
b10 ,
b10 %
b10 E
b10 .
b10 (
b10 G
b10 6
1'
1"
#302480
0'
0"
#303680
1!
#304470
b1000100 /
b100 +
b100 -
b100 5
b1000011 0
b11 $
b11 D
b11 ,
b11 %
b11 E
b11 .
b11 (
b11 G
b11 6
1'
1"
#306460
0'
0"
#307840
0!
#308450
b1000101 /
b101 +
b101 -
b101 5
b1000100 0
b100 $
b100 D
b100 ,
b100 %
b100 E
b100 .
b100 (
b100 G
b100 6
1'
1"
#310440
0'
0"
#312000
1!
#312430
b1000110 /
b110 +
b110 -
b110 5
b1000101 0
b101 $
b101 D
b101 ,
b101 %
b101 E
b101 .
b101 (
b101 G
b101 6
1'
1"
#314420
0'
0"
#316160
0!
#316410
b1000111 /
b111 +
b111 -
b111 5
b1000110 0
b110 $
b110 D
b110 ,
b110 %
b110 E
b110 .
b110 (
b110 G
b110 6
1'
1"
#318400
0'
0"
#320320
1!
#320390
b1001000 /
b1000 +
b1000 -
b1000 5
b1000111 0
b111 $
b111 D
b111 ,
b111 %
b111 E
b111 .
b111 (
b111 G
b111 6
1'
1"
#322380
0'
0"
#324370
b1001001 /
b1001 +
b1001 -
b1001 5
b1001000 0
b1000 $
b1000 D
b1000 ,
b1000 %
b1000 E
b1000 .
b1000 (
b1000 G
b1000 6
1'
1"
#324480
0!
#326360
0'
0"
#328350
b1001010 /
b1010 +
b1010 -
b1010 5
b1001001 0
b1001 $
b1001 D
b1001 ,
b1001 %
b1001 E
b1001 .
b1001 (
b1001 G
b1001 6
1'
1"
#328640
1!
#330340
0'
0"
#332330
b1001011 /
b1011 +
b1011 -
b1011 5
b1001010 0
b1010 $
b1010 D
b1010 ,
b1010 %
b1010 E
b1010 .
b1010 (
b1010 G
b1010 6
1'
1"
#332800
0!
#334320
0'
0"
#336310
b1001100 /
b1100 +
b1100 -
b1100 5
b1001011 0
b1011 $
b1011 D
b1011 ,
b1011 %
b1011 E
b1011 .
b1011 (
b1011 G
b1011 6
1'
1"
#336960
1!
#338300
0'
0"
#340290
b1001101 /
b1101 +
b1101 -
b1101 5
b1001100 0
b1100 $
b1100 D
b1100 ,
b1100 %
b1100 E
b1100 .
b1100 (
b1100 G
b1100 6
1'
1"
#341120
0!
#342280
0'
0"
#344270
b1001110 /
b1110 +
b1110 -
b1110 5
b1001101 0
b1101 $
b1101 D
b1101 ,
b1101 %
b1101 E
b1101 .
b1101 (
b1101 G
b1101 6
1'
1"
#345280
1!
#346260
0'
0"
#348250
b1001111 /
b1111 +
b1111 -
b1111 5
b1001110 0
b1110 $
b1110 D
b1110 ,
b1110 %
b1110 E
b1110 .
b1110 (
b1110 G
b1110 6
1'
1"
#349440
0!
#350240
0'
0"
#352230
b1010000 /
b0 +
b0 -
b0 5
b1001111 0
b1111 $
b1111 D
b1111 ,
b1111 %
b1111 E
b1111 .
b1111 (
b1111 G
b1111 6
1'
1"
#353600
1!
#354220
0'
0"
#356210
b1010001 /
b1 +
b1 -
b1 5
b1010000 0
b0 $
b0 D
b0 ,
b0 %
b0 E
b0 .
b0 (
b0 G
b0 6
1'
1"
#357760
0!
#358200
0'
0"
#360190
b1010010 /
b10 +
b10 -
b10 5
b1010001 0
b1 $
b1 D
b1 ,
b1 %
b1 E
b1 .
b1 (
b1 G
b1 6
1'
1"
#361920
1!
#362180
0'
0"
#364170
b1010011 /
b11 +
b11 -
b11 5
b1010010 0
b10 $
b10 D
b10 ,
b10 %
b10 E
b10 .
b10 (
b10 G
b10 6
1'
1"
#366080
0!
#366160
0'
0"
#368150
b1010100 /
b100 +
b100 -
b100 5
b1010011 0
b11 $
b11 D
b11 ,
b11 %
b11 E
b11 .
b11 (
b11 G
b11 6
1'
1"
#370140
0'
0"
#370240
1!
#372130
b1010101 /
b101 +
b101 -
b101 5
b1010100 0
b100 $
b100 D
b100 ,
b100 %
b100 E
b100 .
b100 (
b100 G
b100 6
1'
1"
#374120
0'
0"
#374400
0!
#376110
b1010110 /
b110 +
b110 -
b110 5
b1010101 0
b101 $
b101 D
b101 ,
b101 %
b101 E
b101 .
b101 (
b101 G
b101 6
1'
1"
#378100
0'
0"
#378560
1!
#380090
b1010111 /
b111 +
b111 -
b111 5
b1010110 0
b110 $
b110 D
b110 ,
b110 %
b110 E
b110 .
b110 (
b110 G
b110 6
1'
1"
#382080
0'
0"
#382720
0!
#384070
b1011000 /
b1000 +
b1000 -
b1000 5
b1010111 0
b111 $
b111 D
b111 ,
b111 %
b111 E
b111 .
b111 (
b111 G
b111 6
1'
1"
#386060
0'
0"
#386880
1!
#388050
b1011001 /
b1001 +
b1001 -
b1001 5
b1011000 0
b1000 $
b1000 D
b1000 ,
b1000 %
b1000 E
b1000 .
b1000 (
b1000 G
b1000 6
1'
1"
#390040
0'
0"
#391040
0!
#392030
b1011010 /
b1010 +
b1010 -
b1010 5
b1011001 0
b1001 $
b1001 D
b1001 ,
b1001 %
b1001 E
b1001 .
b1001 (
b1001 G
b1001 6
1'
1"
#394020
0'
0"
#395200
1!
#396010
b1011011 /
b1011 +
b1011 -
b1011 5
b1011010 0
b1010 $
b1010 D
b1010 ,
b1010 %
b1010 E
b1010 .
b1010 (
b1010 G
b1010 6
1'
1"
#398000
0'
0"
#399360
0!
#399990
b1011100 /
b1100 +
b1100 -
b1100 5
b1011011 0
b1011 $
b1011 D
b1011 ,
b1011 %
b1011 E
b1011 .
b1011 (
b1011 G
b1011 6
1'
1"
#401980
0'
0"
#403520
1!
#403970
b1011101 /
b1101 +
b1101 -
b1101 5
b1011100 0
b1100 $
b1100 D
b1100 ,
b1100 %
b1100 E
b1100 .
b1100 (
b1100 G
b1100 6
1'
1"
#405960
0'
0"
#407680
0!
#407950
b1011110 /
b1110 +
b1110 -
b1110 5
b1011101 0
b1101 $
b1101 D
b1101 ,
b1101 %
b1101 E
b1101 .
b1101 (
b1101 G
b1101 6
1'
1"
#409940
0'
0"
#411840
1!
#411930
b1011111 /
b1111 +
b1111 -
b1111 5
b1011110 0
b1110 $
b1110 D
b1110 ,
b1110 %
b1110 E
b1110 .
b1110 (
b1110 G
b1110 6
1'
1"
#413920
0'
0"
#415910
b1100000 /
b0 +
b0 -
b0 5
b1011111 0
b1111 $
b1111 D
b1111 ,
b1111 %
b1111 E
b1111 .
b1111 (
b1111 G
b1111 6
1'
1"
#416000
0!
#417900
0'
0"
#419890
b1100001 /
b1 +
b1 -
b1 5
b1100000 0
b0 $
b0 D
b0 ,
b0 %
b0 E
b0 .
b0 (
b0 G
b0 6
1'
1"
#420160
1!
#421880
0'
0"
#423870
b1100010 /
b10 +
b10 -
b10 5
b1100001 0
b1 $
b1 D
b1 ,
b1 %
b1 E
b1 .
b1 (
b1 G
b1 6
1'
1"
#424320
0!
#425860
0'
0"
#427850
b1100011 /
b11 +
b11 -
b11 5
b1100010 0
b10 $
b10 D
b10 ,
b10 %
b10 E
b10 .
b10 (
b10 G
b10 6
1'
1"
#428480
1!
#429840
0'
0"
#431830
b1100100 /
b100 +
b100 -
b100 5
b1100011 0
b11 $
b11 D
b11 ,
b11 %
b11 E
b11 .
b11 (
b11 G
b11 6
1'
1"
#432640
0!
#433820
0'
0"
#435810
b1100101 /
b101 +
b101 -
b101 5
b1100100 0
b100 $
b100 D
b100 ,
b100 %
b100 E
b100 .
b100 (
b100 G
b100 6
1'
1"
#436800
1!
#437800
0'
0"
#439790
b1100110 /
b110 +
b110 -
b110 5
b1100101 0
b101 $
b101 D
b101 ,
b101 %
b101 E
b101 .
b101 (
b101 G
b101 6
1'
1"
#440960
0!
#441780
0'
0"
#443770
b1100111 /
b111 +
b111 -
b111 5
b1100110 0
b110 $
b110 D
b110 ,
b110 %
b110 E
b110 .
b110 (
b110 G
b110 6
1'
1"
#445120
1!
#445760
0'
0"
#447750
b1101000 /
b1000 +
b1000 -
b1000 5
b1100111 0
b111 $
b111 D
b111 ,
b111 %
b111 E
b111 .
b111 (
b111 G
b111 6
1'
1"
#449280
0!
#449740
0'
0"
#451730
b1101001 /
b1001 +
b1001 -
b1001 5
b1101000 0
b1000 $
b1000 D
b1000 ,
b1000 %
b1000 E
b1000 .
b1000 (
b1000 G
b1000 6
1'
1"
#453440
1!
#453720
0'
0"
#455710
b1101010 /
b1010 +
b1010 -
b1010 5
b1101001 0
b1001 $
b1001 D
b1001 ,
b1001 %
b1001 E
b1001 .
b1001 (
b1001 G
b1001 6
1'
1"
#457600
0!
#457700
0'
0"
#459690
b1101011 /
b1011 +
b1011 -
b1011 5
b1101010 0
b1010 $
b1010 D
b1010 ,
b1010 %
b1010 E
b1010 .
b1010 (
b1010 G
b1010 6
1'
1"
#461680
0'
0"
#461760
1!
#463670
b1101100 /
b1100 +
b1100 -
b1100 5
b1101011 0
b1011 $
b1011 D
b1011 ,
b1011 %
b1011 E
b1011 .
b1011 (
b1011 G
b1011 6
1'
1"
#465660
0'
0"
#465920
0!
#467650
b1101101 /
b1101 +
b1101 -
b1101 5
b1101100 0
b1100 $
b1100 D
b1100 ,
b1100 %
b1100 E
b1100 .
b1100 (
b1100 G
b1100 6
1'
1"
#469640
0'
0"
#470080
1!
#471630
b1101110 /
b1110 +
b1110 -
b1110 5
b1101101 0
b1101 $
b1101 D
b1101 ,
b1101 %
b1101 E
b1101 .
b1101 (
b1101 G
b1101 6
1'
1"
#473620
0'
0"
#474240
0!
#475610
b1101111 /
b1111 +
b1111 -
b1111 5
b1101110 0
b1110 $
b1110 D
b1110 ,
b1110 %
b1110 E
b1110 .
b1110 (
b1110 G
b1110 6
1'
1"
#477600
0'
0"
#478400
1!
#479590
b1110000 /
b0 +
b0 -
b0 5
b1101111 0
b1111 $
b1111 D
b1111 ,
b1111 %
b1111 E
b1111 .
b1111 (
b1111 G
b1111 6
1'
1"
#481580
0'
0"
#482560
0!
#483570
b1110001 /
b1 +
b1 -
b1 5
b1110000 0
b0 $
b0 D
b0 ,
b0 %
b0 E
b0 .
b0 (
b0 G
b0 6
1'
1"
#485560
0'
0"
#486720
1!
#487550
b1110010 /
b10 +
b10 -
b10 5
b1110001 0
b1 $
b1 D
b1 ,
b1 %
b1 E
b1 .
b1 (
b1 G
b1 6
1'
1"
#489540
0'
0"
#490880
0!
#491530
b1110011 /
b11 +
b11 -
b11 5
b1110010 0
b10 $
b10 D
b10 ,
b10 %
b10 E
b10 .
b10 (
b10 G
b10 6
1'
1"
#493520
0'
0"
#495040
1!
#495510
b1110100 /
b100 +
b100 -
b100 5
b1110011 0
b11 $
b11 D
b11 ,
b11 %
b11 E
b11 .
b11 (
b11 G
b11 6
1'
1"
#497500
0'
0"
#499200
0!
#499490
b1110101 /
b101 +
b101 -
b101 5
b1110100 0
b100 $
b100 D
b100 ,
b100 %
b100 E
b100 .
b100 (
b100 G
b100 6
1'
1"
#501480
0'
0"
#503360
1!
#503470
b1110110 /
b110 +
b110 -
b110 5
b1110101 0
b101 $
b101 D
b101 ,
b101 %
b101 E
b101 .
b101 (
b101 G
b101 6
1'
1"
#505460
0'
0"
#507450
b1110111 /
b111 +
b111 -
b111 5
b1110110 0
b110 $
b110 D
b110 ,
b110 %
b110 E
b110 .
b110 (
b110 G
b110 6
1'
1"
#507520
0!
#509440
0'
0"
#511430
b1111000 /
b1000 +
b1000 -
b1000 5
b1110111 0
b111 $
b111 D
b111 ,
b111 %
b111 E
b111 .
b111 (
b111 G
b111 6
1'
1"
#511680
1!
#513420
0'
0"
#515410
b1111001 /
b1001 +
b1001 -
b1001 5
b1111000 0
b1000 $
b1000 D
b1000 ,
b1000 %
b1000 E
b1000 .
b1000 (
b1000 G
b1000 6
1'
1"
#515840
0!
#517400
0'
0"
#519390
b1111010 /
b1010 +
b1010 -
b1010 5
b1111001 0
b1001 $
b1001 D
b1001 ,
b1001 %
b1001 E
b1001 .
b1001 (
b1001 G
b1001 6
1'
1"
#520000
1!
#521380
0'
0"
#523370
b1111011 /
b1011 +
b1011 -
b1011 5
b1111010 0
b1010 $
b1010 D
b1010 ,
b1010 %
b1010 E
b1010 .
b1010 (
b1010 G
b1010 6
1'
1"
#524160
0!
#525360
0'
0"
#527350
b1111100 /
b1100 +
b1100 -
b1100 5
b1111011 0
b1011 $
b1011 D
b1011 ,
b1011 %
b1011 E
b1011 .
b1011 (
b1011 G
b1011 6
1'
1"
#528320
1!
#529340
0'
0"
#531330
b1111101 /
b1101 +
b1101 -
b1101 5
b1111100 0
b1100 $
b1100 D
b1100 ,
b1100 %
b1100 E
b1100 .
b1100 (
b1100 G
b1100 6
1'
1"
#532480
0!
#533320
0'
0"
#535310
b1111110 /
b1110 +
b1110 -
b1110 5
b1111101 0
b1101 $
b1101 D
b1101 ,
b1101 %
b1101 E
b1101 .
b1101 (
b1101 G
b1101 6
1'
1"
#536640
1!
#537300
0'
0"
