src/main_tb.vcd
$date
	Sat Nov 20 12:53:45 2021
$end
$version
	Icarus Verilog
$end
$timescale
	1ps
$end
$scope module template_tb $end
$var reg 1 ! clk_i $end
$var reg 1 " px_clk $end
$var reg 1 # reset_ni $end
$scope module dut $end
$var wire 1 ! clk_i $end
$var wire 1 $ pll_lock $end
$var wire 1 % px_clk $end
$var wire 1 # reset_ni $end
$var wire 1 & vsync_o $end
$var wire 4 ' red_o [3:0] $end
$var wire 1 ( hsync_o $end
$var wire 4 ) green_o [3:0] $end
$var wire 4 * blue_o [3:0] $end
$var reg 1 + pll_lock_r $end
$var reg 1 , px_clk_r $end
$scope module u_pll $end
$var wire 1 ! clock_in $end
$var wire 1 % clock_out $end
$var wire 1 $ locked $end
$scope module uut $end
$var wire 1 - BYPASS $end
$var wire 8 . DYNAMICDELAY [7:0] $end
$var wire 1 / EXTFEEDBACK $end
$var wire 1 0 LATCHINPUTVALUE $end
$var wire 1 $ LOCK $end
$var wire 1 ! PACKAGEPIN $end
$var wire 1 % PLLOUTCORE $end
$var wire 1 1 PLLOUTGLOBAL $end
$var wire 1 2 RESETB $end
$var wire 1 3 SCLK $end
$var wire 1 4 SDI $end
$var wire 1 5 SDO $end
$upscope $end
$upscope $end
$scope module u_vga $end
$var wire 4 6 blue_o [3:0] $end
$var wire 1 % clk_i $end
$var wire 4 7 green_o [3:0] $end
$var wire 4 8 red_o [3:0] $end
$var wire 1 # reset_ni $end
$var wire 1 & vsync_o $end
$var wire 1 ( hsync_o $end
$var reg 4 9 blue_d [3:0] $end
$var reg 4 : blue_q [3:0] $end
$var reg 4 ; green_d [3:0] $end
$var reg 4 < green_q [3:0] $end
$var reg 10 = horizontal_counter_d [9:0] $end
$var reg 10 > horizontal_counter_q [9:0] $end
$var reg 4 ? hsync_d [3:0] $end
$var reg 4 @ hsync_q [3:0] $end
$var reg 4 A red_d [3:0] $end
$var reg 4 B red_q [3:0] $end
$var reg 10 C vertical_counter_d [9:0] $end
$var reg 10 D vertical_counter_q [9:0] $end
$var reg 4 E vsync_d [3:0] $end
$var reg 4 F vsync_q [3:0] $end
$upscope $end
$upscope $end
$upscope $end
$enddefinitions $end
#0
$dumpvars
b0 F
bx E
b111100000 D
b111100000 C
b0 B
b0 A
b0 @
bx ?
b1010000000 >
b1010000000 =
b0 <
b0 ;
b0 :
b0 9
b0 8
b0 7
b0 6
z5
z4
z3
12
z1
z0
z/
bz .
0-
x,
x+
b0 *
b0 )
0(
b0 '
0&
x%
x$
0#
0"
0!
$end
#1990
1%
1"
#3980
0%
0"
#4160
1!
#5970
1%
1"
#7960
0%
0"
#8320
0!
#9950
1%
1"
#11940
0%
0"
#12480
1!
#13930
1%
1"
#15920
0%
0"
#16640
0!
#17910
1%
1"
#19900
0%
0"
#20800
1!
#21890
1%
1"
#23880
0%
0"
#24960
0!
#25870
1%
1"
#27860
0%
0"
#29120
1!
#29850
1%
1"
#31840
0%
0"
#33280
0!
#33830
1%
1"
#35820
0%
0"
#37440
1!
#37810
1%
1"
#39800
0%
0"
#40000
b0 E
b0 ?
b1010000001 =
b1 9
b1 ;
b1 A
1#
#41600
0!
#41790
b1010000010 =
b10 9
b10 ;
b10 A
b1010000001 >
b1 *
b1 6
b1 :
b1 )
b1 7
b1 <
b1 '
b1 8
b1 B
1%
1"
#43780
0%
0"
#45760
1!
#45770
b1010000011 =
b11 9
b11 ;
b11 A
b1010000010 >
b10 *
b10 6
b10 :
b10 )
b10 7
b10 <
b10 '
b10 8
b10 B
1%
1"
#47760
0%
0"
#49750
b1010000100 =
b100 9
b100 ;
b100 A
b1010000011 >
b11 *
b11 6
b11 :
b11 )
b11 7
b11 <
b11 '
b11 8
b11 B
1%
1"
#49920
0!
#51740
0%
0"
#53730
b1010000101 =
b101 9
b101 ;
b101 A
b1010000100 >
b100 *
b100 6
b100 :
b100 )
b100 7
b100 <
b100 '
b100 8
b100 B
1%
1"
#54080
1!
#55720
0%
0"
#57710
b1010000110 =
b110 9
b110 ;
b110 A
b1010000101 >
b101 *
b101 6
b101 :
b101 )
b101 7
b101 <
b101 '
b101 8
b101 B
1%
1"
#58240
0!
#59700
0%
0"
#61690
b1010000111 =
b111 9
b111 ;
b111 A
b1010000110 >
b110 *
b110 6
b110 :
b110 )
b110 7
b110 <
b110 '
b110 8
b110 B
1%
1"
#62400
1!
#63680
0%
0"
#65670
b1010001000 =
b1000 9
b1000 ;
b1000 A
b1010000111 >
b111 *
b111 6
b111 :
b111 )
b111 7
b111 <
b111 '
b111 8
b111 B
1%
1"
#66560
0!
#67660
0%
0"
#69650
b1010001001 =
b1001 9
b1001 ;
b1001 A
b1010001000 >
b1000 *
b1000 6
b1000 :
b1000 )
b1000 7
b1000 <
b1000 '
b1000 8
b1000 B
1%
1"
#70720
1!
#71640
0%
0"
#73630
b1010001010 =
b1010 9
b1010 ;
b1010 A
b1010001001 >
b1001 *
b1001 6
b1001 :
b1001 )
b1001 7
b1001 <
b1001 '
b1001 8
b1001 B
1%
1"
#74880
0!
#75620
0%
0"
#77610
b1010001011 =
b1011 9
b1011 ;
b1011 A
b1010001010 >
b1010 *
b1010 6
b1010 :
b1010 )
b1010 7
b1010 <
b1010 '
b1010 8
b1010 B
1%
1"
#79040
1!
#79600
0%
0"
#81590
b1010001100 =
b1100 9
b1100 ;
b1100 A
b1010001011 >
b1011 *
b1011 6
b1011 :
b1011 )
b1011 7
b1011 <
b1011 '
b1011 8
b1011 B
1%
1"
#83200
0!
#83580
0%
0"
#85570
b1010001101 =
b1101 9
b1101 ;
b1101 A
b1010001100 >
b1100 *
b1100 6
b1100 :
b1100 )
b1100 7
b1100 <
b1100 '
b1100 8
b1100 B
1%
1"
#87360
1!
#87560
0%
0"
#89550
b1010001110 =
b1110 9
b1110 ;
b1110 A
b1010001101 >
b1101 *
b1101 6
b1101 :
b1101 )
b1101 7
b1101 <
b1101 '
b1101 8
b1101 B
1%
1"
#91520
0!
#91540
0%
0"
#93530
b1010001111 =
b1111 9
b1111 ;
b1111 A
b1010001110 >
b1110 *
b1110 6
b1110 :
b1110 )
b1110 7
b1110 <
b1110 '
b1110 8
b1110 B
1%
1"
#95520
0%
0"
#95680
1!
#97510
b1 ?
b1010010000 =
b0 9
b0 ;
b0 A
b1010001111 >
b1111 *
b1111 6
b1111 :
b1111 )
b1111 7
b1111 <
b1111 '
b1111 8
b1111 B
1%
1"
#99500
0%
0"
#99840
0!
#101490
1(
b1010010001 =
b1 9
b1 ;
b1 A
b1010010000 >
b1 @
b0 *
b0 6
b0 :
b0 )
b0 7
b0 <
b0 '
b0 8
b0 B
1%
1"
#103480
0%
0"
#104000
1!
#105470
b1010010010 =
b10 9
b10 ;
b10 A
b1010010001 >
b1 *
b1 6
b1 :
b1 )
b1 7
b1 <
b1 '
b1 8
b1 B
1%
1"
#107460
0%
0"
#108160
0!
#109450
b1010010011 =
b11 9
b11 ;
b11 A
b1010010010 >
b10 *
b10 6
b10 :
b10 )
b10 7
b10 <
b10 '
b10 8
b10 B
1%
1"
#111440
0%
0"
#112320
1!
#113430
b1010010100 =
b100 9
b100 ;
b100 A
b1010010011 >
b11 *
b11 6
b11 :
b11 )
b11 7
b11 <
b11 '
b11 8
b11 B
1%
1"
#115420
0%
0"
#116480
0!
#117410
b1010010101 =
b101 9
b101 ;
b101 A
b1010010100 >
b100 *
b100 6
b100 :
b100 )
b100 7
b100 <
b100 '
b100 8
b100 B
1%
1"
#119400
0%
0"
#120640
1!
#121390
b1010010110 =
b110 9
b110 ;
b110 A
b1010010101 >
b101 *
b101 6
b101 :
b101 )
b101 7
b101 <
b101 '
b101 8
b101 B
1%
1"
#123380
0%
0"
#124800
0!
#125370
b1010010111 =
b111 9
b111 ;
b111 A
b1010010110 >
b110 *
b110 6
b110 :
b110 )
b110 7
b110 <
b110 '
b110 8
b110 B
1%
1"
#127360
0%
0"
#128960
1!
#129350
b1010011000 =
b1000 9
b1000 ;
b1000 A
b1010010111 >
b111 *
b111 6
b111 :
b111 )
b111 7
b111 <
b111 '
b111 8
b111 B
1%
1"
#131340
0%
0"
#133120
0!
#133330
b1010011001 =
b1001 9
b1001 ;
b1001 A
b1010011000 >
b1000 *
b1000 6
b1000 :
b1000 )
b1000 7
b1000 <
b1000 '
b1000 8
b1000 B
1%
1"
#135320
0%
0"
#137280
1!
#137310
b1010011010 =
b1010 9
b1010 ;
b1010 A
b1010011001 >
b1001 *
b1001 6
b1001 :
b1001 )
b1001 7
b1001 <
b1001 '
b1001 8
b1001 B
1%
1"
#139300
0%
0"
#141290
b1010011011 =
b1011 9
b1011 ;
b1011 A
b1010011010 >
b1010 *
b1010 6
b1010 :
b1010 )
b1010 7
b1010 <
b1010 '
b1010 8
b1010 B
1%
1"
#141440
0!
#143280
0%
0"
#145270
b1010011100 =
b1100 9
b1100 ;
b1100 A
b1010011011 >
b1011 *
b1011 6
b1011 :
b1011 )
b1011 7
b1011 <
b1011 '
b1011 8
b1011 B
1%
1"
#145600
1!
#147260
0%
0"
#149250
b1010011101 =
b1101 9
b1101 ;
b1101 A
b1010011100 >
b1100 *
b1100 6
b1100 :
b1100 )
b1100 7
b1100 <
b1100 '
b1100 8
b1100 B
1%
1"
#149760
0!
#151240
0%
0"
#153230
b1010011110 =
b1110 9
b1110 ;
b1110 A
b1010011101 >
b1101 *
b1101 6
b1101 :
b1101 )
b1101 7
b1101 <
b1101 '
b1101 8
b1101 B
1%
1"
#153920
1!
#155220
0%
0"
#157210
b1010011111 =
b1111 9
b1111 ;
b1111 A
b1010011110 >
b1110 *
b1110 6
b1110 :
b1110 )
b1110 7
b1110 <
b1110 '
b1110 8
b1110 B
1%
1"
#158080
0!
#159200
0%
0"
#161190
b1010100000 =
b0 9
b0 ;
b0 A
b1010011111 >
b1111 *
b1111 6
b1111 :
b1111 )
b1111 7
b1111 <
b1111 '
b1111 8
b1111 B
1%
1"
#162240
1!
#163180
0%
0"
#165170
b1010100001 =
b1 9
b1 ;
b1 A
b1010100000 >
b0 *
b0 6
b0 :
b0 )
b0 7
b0 <
b0 '
b0 8
b0 B
1%
1"
#166400
0!
#167160
0%
0"
#169150
b1010100010 =
b10 9
b10 ;
b10 A
b1010100001 >
b1 *
b1 6
b1 :
b1 )
b1 7
b1 <
b1 '
b1 8
b1 B
1%
1"
#170560
1!
#171140
0%
0"
#173130
b1010100011 =
b11 9
b11 ;
b11 A
b1010100010 >
b10 *
b10 6
b10 :
b10 )
b10 7
b10 <
b10 '
b10 8
b10 B
1%
1"
#174720
0!
#175120
0%
0"
#177110
b1010100100 =
b100 9
b100 ;
b100 A
b1010100011 >
b11 *
b11 6
b11 :
b11 )
b11 7
b11 <
b11 '
b11 8
b11 B
1%
1"
#178880
1!
#179100
0%
0"
#181090
b1010100101 =
b101 9
b101 ;
b101 A
b1010100100 >
b100 *
b100 6
b100 :
b100 )
b100 7
b100 <
b100 '
b100 8
b100 B
1%
1"
#183040
0!
#183080
0%
0"
#185070
b1010100110 =
b110 9
b110 ;
b110 A
b1010100101 >
b101 *
b101 6
b101 :
b101 )
b101 7
b101 <
b101 '
b101 8
b101 B
1%
1"
#187060
0%
0"
#187200
1!
#189050
b1010100111 =
b111 9
b111 ;
b111 A
b1010100110 >
b110 *
b110 6
b110 :
b110 )
b110 7
b110 <
b110 '
b110 8
b110 B
1%
1"
#191040
0%
0"
#191360
0!
#193030
b1010101000 =
b1000 9
b1000 ;
b1000 A
b1010100111 >
b111 *
b111 6
b111 :
b111 )
b111 7
b111 <
b111 '
b111 8
b111 B
1%
1"
#195020
0%
0"
#195520
1!
#197010
b1010101001 =
b1001 9
b1001 ;
b1001 A
b1010101000 >
b1000 *
b1000 6
b1000 :
b1000 )
b1000 7
b1000 <
b1000 '
b1000 8
b1000 B
1%
1"
#199000
0%
0"
#199680
0!
#200990
b1010101010 =
b1010 9
b1010 ;
b1010 A
b1010101001 >
b1001 *
b1001 6
b1001 :
b1001 )
b1001 7
b1001 <
b1001 '
b1001 8
b1001 B
1%
1"
#202980
0%
0"
#203840
1!
#204970
b1010101011 =
b1011 9
b1011 ;
b1011 A
b1010101010 >
b1010 *
b1010 6
b1010 :
b1010 )
b1010 7
b1010 <
b1010 '
b1010 8
b1010 B
1%
1"
#206960
0%
0"
#208000
0!
#208950
b1010101100 =
b1100 9
b1100 ;
b1100 A
b1010101011 >
b1011 *
b1011 6
b1011 :
b1011 )
b1011 7
b1011 <
b1011 '
b1011 8
b1011 B
1%
1"
#210940
0%
0"
#212160
1!
#212930
b1010101101 =
b1101 9
b1101 ;
b1101 A
b1010101100 >
b1100 *
b1100 6
b1100 :
b1100 )
b1100 7
b1100 <
b1100 '
b1100 8
b1100 B
1%
1"
#214920
0%
0"
#216320
0!
#216910
b1010101110 =
b1110 9
b1110 ;
b1110 A
b1010101101 >
b1101 *
b1101 6
b1101 :
b1101 )
b1101 7
b1101 <
b1101 '
b1101 8
b1101 B
1%
1"
#218900
0%
0"
#220480
1!
#220890
b1010101111 =
b1111 9
b1111 ;
b1111 A
b1010101110 >
b1110 *
b1110 6
b1110 :
b1110 )
b1110 7
b1110 <
b1110 '
b1110 8
b1110 B
1%
1"
#222880
0%
0"
#224640
0!
#224870
b1010110000 =
b0 9
b0 ;
b0 A
b1010101111 >
b1111 *
b1111 6
b1111 :
b1111 )
b1111 7
b1111 <
b1111 '
b1111 8
b1111 B
1%
1"
#226860
0%
0"
#228800
1!
#228850
b1010110001 =
b1 9
b1 ;
b1 A
b1010110000 >
b0 *
b0 6
b0 :
b0 )
b0 7
b0 <
b0 '
b0 8
b0 B
1%
1"
#230840
0%
0"
#232830
b1010110010 =
b10 9
b10 ;
b10 A
b1010110001 >
b1 *
b1 6
b1 :
b1 )
b1 7
b1 <
b1 '
b1 8
b1 B
1%
1"
#232960
0!
#234820
0%
0"
#236810
b1010110011 =
b11 9
b11 ;
b11 A
b1010110010 >
b10 *
b10 6
b10 :
b10 )
b10 7
b10 <
b10 '
b10 8
b10 B
1%
1"
#237120
1!
#238800
0%
0"
#240790
b1010110100 =
b100 9
b100 ;
b100 A
b1010110011 >
b11 *
b11 6
b11 :
b11 )
b11 7
b11 <
b11 '
b11 8
b11 B
1%
1"
#241280
0!
#242780
0%
0"
#244770
b1010110101 =
b101 9
b101 ;
b101 A
b1010110100 >
b100 *
b100 6
b100 :
b100 )
b100 7
b100 <
b100 '
b100 8
b100 B
1%
1"
#245440
1!
#246760
0%
0"
#248750
b1010110110 =
b110 9
b110 ;
b110 A
b1010110101 >
b101 *
b101 6
b101 :
b101 )
b101 7
b101 <
b101 '
b101 8
b101 B
1%
1"
#249600
0!
#250740
0%
0"
#252730
b1010110111 =
b111 9
b111 ;
b111 A
b1010110110 >
b110 *
b110 6
b110 :
b110 )
b110 7
b110 <
b110 '
b110 8
b110 B
1%
1"
#253760
1!
#254720
0%
0"
#256710
b1010111000 =
b1000 9
b1000 ;
b1000 A
b1010110111 >
b111 *
b111 6
b111 :
b111 )
b111 7
b111 <
b111 '
b111 8
b111 B
1%
1"
#257920
0!
#258700
0%
0"
#260690
b1010111001 =
b1001 9
b1001 ;
b1001 A
b1010111000 >
b1000 *
b1000 6
b1000 :
b1000 )
b1000 7
b1000 <
b1000 '
b1000 8
b1000 B
1%
1"
#262080
1!
#262680
0%
0"
#264670
b1010111010 =
b1010 9
b1010 ;
b1010 A
b1010111001 >
b1001 *
b1001 6
b1001 :
b1001 )
b1001 7
b1001 <
b1001 '
b1001 8
b1001 B
1%
1"
#266240
0!
#266660
0%
0"
#268650
b1010111011 =
b1011 9
b1011 ;
b1011 A
b1010111010 >
b1010 *
b1010 6
b1010 :
b1010 )
b1010 7
b1010 <
b1010 '
b1010 8
b1010 B
1%
1"
#270400
1!
#270640
0%
0"
#272630
b1010111100 =
b1100 9
b1100 ;
b1100 A
b1010111011 >
b1011 *
b1011 6
b1011 :
b1011 )
b1011 7
b1011 <
b1011 '
b1011 8
b1011 B
1%
1"
#274560
0!
#274620
0%
0"
#276610
b1010111101 =
b1101 9
b1101 ;
b1101 A
b1010111100 >
b1100 *
b1100 6
b1100 :
b1100 )
b1100 7
b1100 <
b1100 '
b1100 8
b1100 B
1%
1"
#278600
0%
0"
#278720
1!
#280590
b1010111110 =
b1110 9
b1110 ;
b1110 A
b1010111101 >
b1101 *
b1101 6
b1101 :
b1101 )
b1101 7
b1101 <
b1101 '
b1101 8
b1101 B
1%
1"
#282580
0%
0"
#282880
0!
#284570
b1010111111 =
b1111 9
b1111 ;
b1111 A
b1010111110 >
b1110 *
b1110 6
b1110 :
b1110 )
b1110 7
b1110 <
b1110 '
b1110 8
b1110 B
1%
1"
#286560
0%
0"
#287040
1!
#288550
b1011000000 =
b0 9
b0 ;
b0 A
b1010111111 >
b1111 *
b1111 6
b1111 :
b1111 )
b1111 7
b1111 <
b1111 '
b1111 8
b1111 B
1%
1"
#290540
0%
0"
#291200
0!
#292530
b1011000001 =
b1 9
b1 ;
b1 A
b1011000000 >
b0 *
b0 6
b0 :
b0 )
b0 7
b0 <
b0 '
b0 8
b0 B
1%
1"
#294520
0%
0"
#295360
1!
#296510
b1011000010 =
b10 9
b10 ;
b10 A
b1011000001 >
b1 *
b1 6
b1 :
b1 )
b1 7
b1 <
b1 '
b1 8
b1 B
1%
1"
#298500
0%
0"
#299520
0!
#300490
b1011000011 =
b11 9
b11 ;
b11 A
b1011000010 >
b10 *
b10 6
b10 :
b10 )
b10 7
b10 <
b10 '
b10 8
b10 B
1%
1"
#302480
0%
0"
#303680
1!
#304470
b1011000100 =
b100 9
b100 ;
b100 A
b1011000011 >
b11 *
b11 6
b11 :
b11 )
b11 7
b11 <
b11 '
b11 8
b11 B
1%
1"
#306460
0%
0"
#307840
0!
#308450
b1011000101 =
b101 9
b101 ;
b101 A
b1011000100 >
b100 *
b100 6
b100 :
b100 )
b100 7
b100 <
b100 '
b100 8
b100 B
1%
1"
#310440
0%
0"
#312000
1!
#312430
b1011000110 =
b110 9
b110 ;
b110 A
b1011000101 >
b101 *
b101 6
b101 :
b101 )
b101 7
b101 <
b101 '
b101 8
b101 B
1%
1"
#314420
0%
0"
#316160
0!
#316410
b1011000111 =
b111 9
b111 ;
b111 A
b1011000110 >
b110 *
b110 6
b110 :
b110 )
b110 7
b110 <
b110 '
b110 8
b110 B
1%
1"
#318400
0%
0"
#320320
1!
#320390
b1011001000 =
b1000 9
b1000 ;
b1000 A
b1011000111 >
b111 *
b111 6
b111 :
b111 )
b111 7
b111 <
b111 '
b111 8
b111 B
1%
1"
#322380
0%
0"
#324370
b1011001001 =
b1001 9
b1001 ;
b1001 A
b1011001000 >
b1000 *
b1000 6
b1000 :
b1000 )
b1000 7
b1000 <
b1000 '
b1000 8
b1000 B
1%
1"
#324480
0!
#326360
0%
0"
#328350
b1011001010 =
b1010 9
b1010 ;
b1010 A
b1011001001 >
b1001 *
b1001 6
b1001 :
b1001 )
b1001 7
b1001 <
b1001 '
b1001 8
b1001 B
1%
1"
#328640
1!
#330340
0%
0"
#332330
b1011001011 =
b1011 9
b1011 ;
b1011 A
b1011001010 >
b1010 *
b1010 6
b1010 :
b1010 )
b1010 7
b1010 <
b1010 '
b1010 8
b1010 B
1%
1"
#332800
0!
#334320
0%
0"
#336310
b1011001100 =
b1100 9
b1100 ;
b1100 A
b1011001011 >
b1011 *
b1011 6
b1011 :
b1011 )
b1011 7
b1011 <
b1011 '
b1011 8
b1011 B
1%
1"
#336960
1!
#338300
0%
0"
#340290
b1011001101 =
b1101 9
b1101 ;
b1101 A
b1011001100 >
b1100 *
b1100 6
b1100 :
b1100 )
b1100 7
b1100 <
b1100 '
b1100 8
b1100 B
1%
1"
#341120
0!
#342280
0%
0"
#344270
b1011001110 =
b1110 9
b1110 ;
b1110 A
b1011001101 >
b1101 *
b1101 6
b1101 :
b1101 )
b1101 7
b1101 <
b1101 '
b1101 8
b1101 B
1%
1"
#345280
1!
#346260
0%
0"
#348250
b1011001111 =
b1111 9
b1111 ;
b1111 A
b1011001110 >
b1110 *
b1110 6
b1110 :
b1110 )
b1110 7
b1110 <
b1110 '
b1110 8
b1110 B
1%
1"
#349440
0!
#350240
0%
0"
#352230
b1011010000 =
b0 9
b0 ;
b0 A
b1011001111 >
b1111 *
b1111 6
b1111 :
b1111 )
b1111 7
b1111 <
b1111 '
b1111 8
b1111 B
1%
1"
#353600
1!
#354220
0%
0"
#356210
b1011010001 =
b1 9
b1 ;
b1 A
b1011010000 >
b0 *
b0 6
b0 :
b0 )
b0 7
b0 <
b0 '
b0 8
b0 B
1%
1"
#357760
0!
#358200
0%
0"
#360190
b1011010010 =
b10 9
b10 ;
b10 A
b1011010001 >
b1 *
b1 6
b1 :
b1 )
b1 7
b1 <
b1 '
b1 8
b1 B
1%
1"
#361920
1!
#362180
0%
0"
#364170
b1011010011 =
b11 9
b11 ;
b11 A
b1011010010 >
b10 *
b10 6
b10 :
b10 )
b10 7
b10 <
b10 '
b10 8
b10 B
1%
1"
#366080
0!
#366160
0%
0"
#368150
b1011010100 =
b100 9
b100 ;
b100 A
b1011010011 >
b11 *
b11 6
b11 :
b11 )
b11 7
b11 <
b11 '
b11 8
b11 B
1%
1"
#370140
0%
0"
#370240
1!
#372130
b1011010101 =
b101 9
b101 ;
b101 A
b1011010100 >
b100 *
b100 6
b100 :
b100 )
b100 7
b100 <
b100 '
b100 8
b100 B
1%
1"
#374120
0%
0"
#374400
0!
#376110
b1011010110 =
b110 9
b110 ;
b110 A
b1011010101 >
b101 *
b101 6
b101 :
b101 )
b101 7
b101 <
b101 '
b101 8
b101 B
1%
1"
#378100
0%
0"
#378560
1!
#380090
b1011010111 =
b111 9
b111 ;
b111 A
b1011010110 >
b110 *
b110 6
b110 :
b110 )
b110 7
b110 <
b110 '
b110 8
b110 B
1%
1"
#382080
0%
0"
#382720
0!
#384070
b1011011000 =
b1000 9
b1000 ;
b1000 A
b1011010111 >
b111 *
b111 6
b111 :
b111 )
b111 7
b111 <
b111 '
b111 8
b111 B
1%
1"
#386060
0%
0"
#386880
1!
#388050
b1011011001 =
b1001 9
b1001 ;
b1001 A
b1011011000 >
b1000 *
b1000 6
b1000 :
b1000 )
b1000 7
b1000 <
b1000 '
b1000 8
b1000 B
1%
1"
#390040
0%
0"
#391040
0!
#392030
b1011011010 =
b1010 9
b1010 ;
b1010 A
b1011011001 >
b1001 *
b1001 6
b1001 :
b1001 )
b1001 7
b1001 <
b1001 '
b1001 8
b1001 B
1%
1"
#394020
0%
0"
#395200
1!
#396010
b1011011011 =
b1011 9
b1011 ;
b1011 A
b1011011010 >
b1010 *
b1010 6
b1010 :
b1010 )
b1010 7
b1010 <
b1010 '
b1010 8
b1010 B
1%
1"
#398000
0%
0"
#399360
0!
#399990
b1011011100 =
b1100 9
b1100 ;
b1100 A
b1011011011 >
b1011 *
b1011 6
b1011 :
b1011 )
b1011 7
b1011 <
b1011 '
b1011 8
b1011 B
1%
1"
#401980
0%
0"
#403520
1!
#403970
b1011011101 =
b1101 9
b1101 ;
b1101 A
b1011011100 >
b1100 *
b1100 6
b1100 :
b1100 )
b1100 7
b1100 <
b1100 '
b1100 8
b1100 B
1%
1"
#405960
0%
0"
#407680
0!
#407950
b1011011110 =
b1110 9
b1110 ;
b1110 A
b1011011101 >
b1101 *
b1101 6
b1101 :
b1101 )
b1101 7
b1101 <
b1101 '
b1101 8
b1101 B
1%
1"
#409940
0%
0"
#411840
1!
#411930
b1011011111 =
b1111 9
b1111 ;
b1111 A
b1011011110 >
b1110 *
b1110 6
b1110 :
b1110 )
b1110 7
b1110 <
b1110 '
b1110 8
b1110 B
1%
1"
#413920
0%
0"
#415910
b1011100000 =
b0 9
b0 ;
b0 A
b1011011111 >
b1111 *
b1111 6
b1111 :
b1111 )
b1111 7
b1111 <
b1111 '
b1111 8
b1111 B
1%
1"
#416000
0!
#417900
0%
0"
#419890
b1011100001 =
b1 9
b1 ;
b1 A
b1011100000 >
b0 *
b0 6
b0 :
b0 )
b0 7
b0 <
b0 '
b0 8
b0 B
1%
1"
#420160
1!
#421880
0%
0"
#423870
b1011100010 =
b10 9
b10 ;
b10 A
b1011100001 >
b1 *
b1 6
b1 :
b1 )
b1 7
b1 <
b1 '
b1 8
b1 B
1%
1"
#424320
0!
#425860
0%
0"
#427850
b1011100011 =
b11 9
b11 ;
b11 A
b1011100010 >
b10 *
b10 6
b10 :
b10 )
b10 7
b10 <
b10 '
b10 8
b10 B
1%
1"
#428480
1!
#429840
0%
0"
#431830
b1011100100 =
b100 9
b100 ;
b100 A
b1011100011 >
b11 *
b11 6
b11 :
b11 )
b11 7
b11 <
b11 '
b11 8
b11 B
1%
1"
#432640
0!
#433820
0%
0"
#435810
b1011100101 =
b101 9
b101 ;
b101 A
b1011100100 >
b100 *
b100 6
b100 :
b100 )
b100 7
b100 <
b100 '
b100 8
b100 B
1%
1"
#436800
1!
#437800
0%
0"
#439790
b1011100110 =
b110 9
b110 ;
b110 A
b1011100101 >
b101 *
b101 6
b101 :
b101 )
b101 7
b101 <
b101 '
b101 8
b101 B
1%
1"
#440960
0!
#441780
0%
0"
#443770
b1011100111 =
b111 9
b111 ;
b111 A
b1011100110 >
b110 *
b110 6
b110 :
b110 )
b110 7
b110 <
b110 '
b110 8
b110 B
1%
1"
#445120
1!
#445760
0%
0"
#447750
b1011101000 =
b1000 9
b1000 ;
b1000 A
b1011100111 >
b111 *
b111 6
b111 :
b111 )
b111 7
b111 <
b111 '
b111 8
b111 B
1%
1"
#449280
0!
#449740
0%
0"
#451730
b1011101001 =
b1001 9
b1001 ;
b1001 A
b1011101000 >
b1000 *
b1000 6
b1000 :
b1000 )
b1000 7
b1000 <
b1000 '
b1000 8
b1000 B
1%
1"
#453440
1!
#453720
0%
0"
#455710
b1011101010 =
b1010 9
b1010 ;
b1010 A
b1011101001 >
b1001 *
b1001 6
b1001 :
b1001 )
b1001 7
b1001 <
b1001 '
b1001 8
b1001 B
1%
1"
#457600
0!
#457700
0%
0"
#459690
b1011101011 =
b1011 9
b1011 ;
b1011 A
b1011101010 >
b1010 *
b1010 6
b1010 :
b1010 )
b1010 7
b1010 <
b1010 '
b1010 8
b1010 B
1%
1"
#461680
0%
0"
#461760
1!
#463670
b1011101100 =
b1100 9
b1100 ;
b1100 A
b1011101011 >
b1011 *
b1011 6
b1011 :
b1011 )
b1011 7
b1011 <
b1011 '
b1011 8
b1011 B
1%
1"
#465660
0%
0"
#465920
0!
#467650
b1011101101 =
b1101 9
b1101 ;
b1101 A
b1011101100 >
b1100 *
b1100 6
b1100 :
b1100 )
b1100 7
b1100 <
b1100 '
b1100 8
b1100 B
1%
1"
#469640
0%
0"
#470080
1!
#471630
b1011101110 =
b1110 9
b1110 ;
b1110 A
b1011101101 >
b1101 *
b1101 6
b1101 :
b1101 )
b1101 7
b1101 <
b1101 '
b1101 8
b1101 B
1%
1"
#473620
0%
0"
#474240
0!
#475610
b1011101111 =
b1111 9
b1111 ;
b1111 A
b1011101110 >
b1110 *
b1110 6
b1110 :
b1110 )
b1110 7
b1110 <
b1110 '
b1110 8
b1110 B
1%
1"
#477600
0%
0"
#478400
1!
#479590
b0 ?
b1011110000 =
b0 9
b0 ;
b0 A
b1011101111 >
b1111 *
b1111 6
b1111 :
b1111 )
b1111 7
b1111 <
b1111 '
b1111 8
b1111 B
1%
1"
#481580
0%
0"
#482560
0!
#483570
0(
b1011110001 =
b1 9
b1 ;
b1 A
b1011110000 >
b0 @
b0 *
b0 6
b0 :
b0 )
b0 7
b0 <
b0 '
b0 8
b0 B
1%
1"
#485560
0%
0"
#486720
1!
#487550
b1011110010 =
b10 9
b10 ;
b10 A
b1011110001 >
b1 *
b1 6
b1 :
b1 )
b1 7
b1 <
b1 '
b1 8
b1 B
1%
1"
#489540
0%
0"
#490880
0!
#491530
b1011110011 =
b11 9
b11 ;
b11 A
b1011110010 >
b10 *
b10 6
b10 :
b10 )
b10 7
b10 <
b10 '
b10 8
b10 B
1%
1"
#493520
0%
0"
#495040
1!
#495510
b1011110100 =
b100 9
b100 ;
b100 A
b1011110011 >
b11 *
b11 6
b11 :
b11 )
b11 7
b11 <
b11 '
b11 8
b11 B
1%
1"
#497500
0%
0"
#499200
0!
#499490
b1011110101 =
b101 9
b101 ;
b101 A
b1011110100 >
b100 *
b100 6
b100 :
b100 )
b100 7
b100 <
b100 '
b100 8
b100 B
1%
1"
#501480
0%
0"
#503360
1!
#503470
b1011110110 =
b110 9
b110 ;
b110 A
b1011110101 >
b101 *
b101 6
b101 :
b101 )
b101 7
b101 <
b101 '
b101 8
b101 B
1%
1"
#505460
0%
0"
#507450
b1011110111 =
b111 9
b111 ;
b111 A
b1011110110 >
b110 *
b110 6
b110 :
b110 )
b110 7
b110 <
b110 '
b110 8
b110 B
1%
1"
#507520
0!
#509440
0%
0"
#511430
b1011111000 =
b1000 9
b1000 ;
b1000 A
b1011110111 >
b111 *
b111 6
b111 :
b111 )
b111 7
b111 <
b111 '
b111 8
b111 B
1%
1"
#511680
1!
#513420
0%
0"
#515410
b1011111001 =
b1001 9
b1001 ;
b1001 A
b1011111000 >
b1000 *
b1000 6
b1000 :
b1000 )
b1000 7
b1000 <
b1000 '
b1000 8
b1000 B
1%
1"
#515840
0!
#517400
0%
0"
#519390
b1011111010 =
b1010 9
b1010 ;
b1010 A
b1011111001 >
b1001 *
b1001 6
b1001 :
b1001 )
b1001 7
b1001 <
b1001 '
b1001 8
b1001 B
1%
1"
#520000
1!
#521380
0%
0"
#523370
b1011111011 =
b1011 9
b1011 ;
b1011 A
b1011111010 >
b1010 *
b1010 6
b1010 :
b1010 )
b1010 7
b1010 <
b1010 '
b1010 8
b1010 B
1%
1"
#524160
0!
#525360
0%
0"
